[2017-01-07 10:28:30.969] [INFO] api - Enter login api counter_value1
[2017-01-07 10:28:30.972] [INFO] api - Closing login api counter_value0
[2017-01-07 10:28:31.255] [INFO] api - Connection Established To Big MongoDB
[2017-01-07 10:28:32.671] [INFO] api - user login validated from mysql
[2017-01-07 10:28:33.585] [INFO] api - Get Invoice By Status Compnay name Counter Value1
[2017-01-07 10:28:39.394] [INFO] api - Connection Established To MongoDB
[2017-01-07 10:28:39.400] [INFO] api - End Invoice By Status Compnay name Counter Value0
[2017-01-07 10:28:39.681] [INFO] api - Sucessfully getting the part code in pow5
[2017-01-07 10:28:39.692] [INFO] api - Get Invoice By Status Compnay name Counter Value1
[2017-01-07 10:28:43.522] [INFO] api - Connection Established To MongoDB
[2017-01-07 10:28:43.522] [INFO] api - End Invoice By Status Compnay name Counter Value0
[2017-01-07 10:28:43.804] [INFO] api - Sucessfully getting the part code in pow5
[2017-01-07 10:28:45.031] [INFO] api - Get Retailer List Counter Value1
[2017-01-07 10:28:45.041] [INFO] api - Get Invoice Number Counter Value2
[2017-01-07 10:28:45.048] [INFO] api - Get Invoice Details By User Id Counter Value3
[2017-01-07 10:28:54.062] [INFO] api - Get Details By Invoice Number Counter Value2
[2017-01-07 10:28:54.062] [INFO] api - Connection Established To MongoDB
[2017-01-07 10:28:54.072] [INFO] api - End Get Retailer List counter Value1
[2017-01-07 10:28:54.322] [INFO] api - End Invoice Details By User Id Counter Value0
[2017-01-07 10:28:54.342] [INFO] api - Sucessfully getting the part code in pow1
[2017-01-07 10:28:55.166] [INFO] api - Sucessfully invoice details based on user id56
[2017-01-07 10:28:55.208] [INFO] api - Sucessfully getting the retailer list2417
[2017-01-07 10:31:17.554] [INFO] api - Get Search By Part Cose Counter Value1
[2017-01-07 10:31:21.110] [INFO] api - Sucessfully getting sku list1
[2017-01-07 10:31:24.634] [INFO] api - Sucessfully getting the part code in pow0
[2017-01-07 10:31:30.174] [INFO] api - Get Search By Part Cose Counter Value2
[2017-01-07 10:31:35.178] [INFO] api - Sucessfully getting sku list1
[2017-01-07 10:31:39.851] [INFO] api - Sucessfully getting the part code in pow0
[2017-01-07 10:31:50.356] [INFO] api - Get Details By Invoice Number Counter Value1
[2017-01-07 10:31:50.636] [INFO] api - Sucessfully getting the part code in powundefined
[2017-01-07 10:44:37.069] [INFO] api - Connection Established To Big MongoDB
[2017-01-07 10:45:53.525] [INFO] api - Connection Established To Big MongoDB
[2017-01-07 10:46:04.333] [INFO] api - Get Invoice By Status Compnay name Counter Value1
[2017-01-07 10:46:09.000] [INFO] api - Connection Established To MongoDB
[2017-01-07 10:46:09.003] [INFO] api - End Invoice By Status Compnay name Counter Value0
[2017-01-07 10:46:09.285] [INFO] api - Sucessfully getting the part code in pow7
[2017-01-07 10:46:09.290] [INFO] api - Get Invoice By Status Compnay name Counter Value1
[2017-01-07 10:46:12.465] [INFO] api - Connection Established To MongoDB
[2017-01-07 10:46:12.466] [INFO] api - End Invoice By Status Compnay name Counter Value0
[2017-01-07 10:46:12.750] [INFO] api - Sucessfully getting the part code in pow7
[2017-01-07 10:46:38.025] [INFO] api - Get Retailer List Counter Value1
[2017-01-07 10:46:38.033] [INFO] api - Get Invoice Number Counter Value2
[2017-01-07 10:46:38.037] [INFO] api - Get Invoice Details By User Id Counter Value3
[2017-01-07 10:46:45.256] [INFO] api - End Invoice Details By User Id Counter Value2
[2017-01-07 10:46:45.257] [INFO] api - Get Details By Invoice Number Counter Value1
[2017-01-07 10:46:45.523] [INFO] api - Connection Established To MongoDB
[2017-01-07 10:46:45.523] [INFO] api - End Get Retailer List counter Value0
[2017-01-07 10:46:45.536] [INFO] api - Sucessfully getting the part code in pow1
[2017-01-07 10:46:46.103] [INFO] api - Sucessfully invoice details based on user id56
[2017-01-07 10:46:46.662] [INFO] api - Sucessfully getting the retailer list2417
[2017-01-07 10:46:48.994] [INFO] api - Get Search By Part Cose Counter Value1
[2017-01-07 10:46:52.445] [INFO] api - Sucessfully getting sku list1
[2017-01-07 10:46:57.362] [INFO] api - Sucessfully getting the part code in pow0
[2017-01-07 10:47:02.486] [INFO] api - Get Search By Part Cose Counter Value2
[2017-01-07 10:47:05.950] [INFO] api - Sucessfully getting sku list1
[2017-01-07 10:47:10.571] [INFO] api - Sucessfully getting the part code in pow0
[2017-01-07 10:48:24.329] [INFO] api - Connection Established To Big MongoDB
[2017-01-07 10:48:34.912] [INFO] api - Get Invoice By Status Compnay name Counter Value1
[2017-01-07 10:48:38.074] [INFO] api - Connection Established To MongoDB
[2017-01-07 10:48:38.077] [INFO] api - End Invoice By Status Compnay name Counter Value0
[2017-01-07 10:48:38.367] [INFO] api - Sucessfully getting the part code in pow8
[2017-01-07 10:48:38.372] [INFO] api - Get Invoice By Status Compnay name Counter Value1
[2017-01-07 10:48:41.048] [INFO] api - Get Retailer List Counter Value2
[2017-01-07 10:48:41.054] [INFO] api - Get Invoice Number Counter Value3
[2017-01-07 10:48:41.058] [INFO] api - Get Invoice Details By User Id Counter Value4
[2017-01-07 10:48:41.590] [INFO] api - Connection Established To MongoDB
[2017-01-07 10:48:41.592] [INFO] api - End Invoice By Status Compnay name Counter Value3
[2017-01-07 10:48:41.874] [INFO] api - Sucessfully getting the part code in pow8
[2017-01-07 10:48:45.593] [INFO] api - Get Details By Invoice Number Counter Value2
[2017-01-07 10:48:47.528] [INFO] api - Sucessfully getting the part code in pow1
[2017-01-07 10:48:47.815] [INFO] api - End Invoice Details By User Id Counter Value1
[2017-01-07 10:48:48.081] [INFO] api - Connection Established To MongoDB
[2017-01-07 10:48:48.082] [INFO] api - End Get Retailer List counter Value0
[2017-01-07 10:48:48.651] [INFO] api - Sucessfully invoice details based on user id56
[2017-01-07 10:48:49.210] [INFO] api - Sucessfully getting the retailer list2417
[2017-01-07 10:48:50.665] [INFO] api - Get Search By Part Cose Counter Value1
[2017-01-07 10:48:54.060] [INFO] api - Sucessfully getting sku list1
[2017-01-07 10:48:58.615] [INFO] api - Sucessfully getting the part code in pow0
[2017-01-07 10:49:13.438] [INFO] api - Get Search By Part Cose Counter Value2
[2017-01-07 10:49:18.390] [INFO] api - Sucessfully getting sku list1
[2017-01-07 10:49:22.970] [INFO] api - Sucessfully getting the part code in pow0
[2017-01-07 10:49:26.195] [INFO] api - Get Search By Part Cose Counter Value3
[2017-01-07 10:49:31.110] [INFO] api - Sucessfully getting sku list1
[2017-01-07 10:49:34.540] [INFO] api - Sucessfully getting the part code in pow0
[2017-01-07 10:51:18.695] [INFO] api - Connection Established To Big MongoDB
[2017-01-07 10:51:29.061] [INFO] api - Get Invoice By Status Compnay name Counter Value1
[2017-01-07 10:51:33.543] [INFO] api - Connection Established To MongoDB
[2017-01-07 10:51:33.546] [INFO] api - End Invoice By Status Compnay name Counter Value0
[2017-01-07 10:51:33.830] [INFO] api - Sucessfully getting the part code in pow9
[2017-01-07 10:51:33.836] [INFO] api - Get Invoice By Status Compnay name Counter Value1
[2017-01-07 10:51:36.270] [INFO] api - Get Retailer List Counter Value2
[2017-01-07 10:51:36.284] [INFO] api - Get Invoice Number Counter Value3
[2017-01-07 10:51:36.292] [INFO] api - Get Invoice Details By User Id Counter Value4
[2017-01-07 10:51:38.329] [INFO] api - Connection Established To MongoDB
[2017-01-07 10:51:38.330] [INFO] api - End Invoice By Status Compnay name Counter Value3
[2017-01-07 10:51:38.611] [INFO] api - Sucessfully getting the part code in pow9
[2017-01-07 10:51:43.797] [INFO] api - Connection Established To MongoDB
[2017-01-07 10:51:43.798] [INFO] api - End Get Retailer List counter Value2
[2017-01-07 10:51:43.800] [INFO] api - End Invoice Details By User Id Counter Value1
[2017-01-07 10:51:44.069] [INFO] api - Get Details By Invoice Number Counter Value0
[2017-01-07 10:51:44.350] [INFO] api - Sucessfully getting the part code in pow1
[2017-01-07 10:51:44.648] [INFO] api - Sucessfully invoice details based on user id56
[2017-01-07 10:51:44.924] [INFO] api - Sucessfully getting the retailer list2417
[2017-01-07 10:51:47.392] [INFO] api - Get Search By Part Cose Counter Value1
[2017-01-07 10:51:52.349] [INFO] api - Sucessfully getting sku list1
[2017-01-07 10:51:57.301] [INFO] api - Sucessfully getting the part code in pow0
[2017-01-07 10:52:01.180] [INFO] api - Get Search By Part Cose Counter Value2
[2017-01-07 10:52:04.671] [INFO] api - Sucessfully getting sku list1
[2017-01-07 10:52:08.210] [INFO] api - Sucessfully getting the part code in pow0
[2017-01-07 10:53:29.136] [INFO] api - Connection Established To Big MongoDB
[2017-01-07 10:57:45.883] [INFO] api - Connection Established To Big MongoDB
[2017-01-07 10:58:07.795] [INFO] api - Get Invoice By Status Compnay name Counter Value1
[2017-01-07 10:58:12.496] [INFO] api - Connection Established To MongoDB
[2017-01-07 10:58:12.499] [INFO] api - End Invoice By Status Compnay name Counter Value0
[2017-01-07 10:58:12.782] [INFO] api - Sucessfully getting the part code in pow8
[2017-01-07 10:58:12.787] [INFO] api - Get Invoice By Status Compnay name Counter Value1
[2017-01-07 10:58:17.612] [INFO] api - Get Retailer List Counter Value2
[2017-01-07 10:58:17.622] [INFO] api - Get Invoice Number Counter Value3
[2017-01-07 10:58:17.913] [INFO] api - Get Invoice Details By User Id Counter Value4
[2017-01-07 10:58:19.916] [INFO] api - Connection Established To MongoDB
[2017-01-07 10:58:19.917] [INFO] api - End Invoice By Status Compnay name Counter Value3
[2017-01-07 10:58:20.200] [INFO] api - Sucessfully getting the part code in pow8
[2017-01-07 10:58:22.592] [INFO] api - Connection Established To MongoDB
[2017-01-07 10:58:22.593] [INFO] api - End Get Retailer List counter Value2
[2017-01-07 10:58:24.741] [INFO] api - Get Details By Invoice Number Counter Value1
[2017-01-07 10:58:25.013] [INFO] api - End Invoice Details By User Id Counter Value0
[2017-01-07 10:58:25.021] [INFO] api - Sucessfully getting the part code in pow1
[2017-01-07 10:58:25.318] [INFO] api - Sucessfully getting the retailer list2417
[2017-01-07 10:58:25.862] [INFO] api - Sucessfully invoice details based on user id57
[2017-01-07 10:58:28.082] [INFO] api - Get Search By Part Cose Counter Value1
[2017-01-07 10:58:32.954] [INFO] api - Sucessfully getting sku list1
[2017-01-07 10:58:37.972] [INFO] api - Sucessfully getting the part code in pow0
[2017-01-07 10:58:50.718] [INFO] api - Get Search By Part Cose Counter Value2
[2017-01-07 10:58:55.518] [INFO] api - Sucessfully getting sku list1
[2017-01-07 10:59:00.369] [INFO] api - Sucessfully getting the part code in pow0
[2017-01-07 11:00:59.502] [INFO] api - Get Invoice By Status Compnay name Counter Value3
[2017-01-07 11:01:03.312] [INFO] api - Get Details By Invoice Number Counter Value2
[2017-01-07 11:01:03.589] [INFO] api - Connection Established To MongoDB
[2017-01-07 11:01:03.590] [INFO] api - End Invoice By Status Compnay name Counter Value1
[2017-01-07 11:01:03.595] [INFO] api - Sucessfully getting the part code in powundefined
[2017-01-07 11:01:03.874] [INFO] api - Sucessfully getting the part code in pow7
[2017-01-07 11:01:03.878] [INFO] api - Get Invoice By Status Compnay name Counter Value2
[2017-01-07 11:01:08.261] [INFO] api - Connection Established To MongoDB
[2017-01-07 11:01:08.261] [INFO] api - End Invoice By Status Compnay name Counter Value1
[2017-01-07 11:01:08.545] [INFO] api - Sucessfully getting the part code in pow7
[2017-01-07 11:01:41.224] [INFO] api - Get Invoice By Status Compnay name Counter Value2
[2017-01-07 11:01:45.704] [INFO] api - Connection Established To MongoDB
[2017-01-07 11:01:45.705] [INFO] api - End Invoice By Status Compnay name Counter Value1
[2017-01-07 11:01:58.891] [INFO] api - Sucessfully getting the part code in pow4267
[2017-01-07 11:06:19.025] [INFO] api - Search Duplicate Invoice List  Counter Value2
[2017-01-07 11:06:23.868] [INFO] api - End  Search Duplicate Invoice List Counter Value1
[2017-01-07 11:06:24.149] [INFO] api - Sucessfully searching duplicate invoice number1
[2017-01-07 11:07:23.774] [INFO] api - Get Invoice By Status Compnay name Counter Value2
[2017-01-07 11:07:26.976] [INFO] api - Connection Established To MongoDB
[2017-01-07 11:07:26.976] [INFO] api - End Invoice By Status Compnay name Counter Value1
[2017-01-07 11:07:27.261] [INFO] api - Sucessfully getting the part code in pow7
[2017-01-07 11:07:48.592] [INFO] api - Get Retailer List Counter Value1
[2017-01-07 11:07:48.604] [INFO] api - Get Invoice Number Counter Value2
[2017-01-07 11:07:48.611] [INFO] api - Get Invoice Details By User Id Counter Value3
[2017-01-07 11:07:54.111] [INFO] api - Connection Established To Big MongoDB
[2017-01-07 11:07:59.637] [INFO] api - End Invoice Details By User Id Counter Value2
[2017-01-07 11:07:59.643] [INFO] api - Get Details By Invoice Number Counter Value1
[2017-01-07 11:07:59.954] [INFO] api - Connection Established To MongoDB
[2017-01-07 11:07:59.954] [INFO] api - End Get Retailer List counter Value0
[2017-01-07 11:07:59.963] [INFO] api - Sucessfully getting the part code in pow1
[2017-01-07 11:08:01.225] [INFO] api - Sucessfully invoice details based on user id58
[2017-01-07 11:08:01.604] [INFO] api - Sucessfully getting the retailer list2417
[2017-01-07 11:08:18.872] [INFO] api - Get Search By Part Cose Counter Value1
[2017-01-07 11:08:24.136] [INFO] api - Sucessfully getting sku list1
[2017-01-07 11:08:27.872] [INFO] api - Sucessfully getting the part code in pow0
[2017-01-07 11:08:33.165] [INFO] api - Get Search By Part Cose Counter Value2
[2017-01-07 11:08:36.790] [INFO] api - Sucessfully getting sku list1
[2017-01-07 11:08:42.002] [INFO] api - Sucessfully getting the part code in pow0
[2017-01-07 11:09:21.775] [INFO] api - Get Retailer List Counter Value3
[2017-01-07 11:09:21.782] [INFO] api - Get Invoice Number Counter Value4
[2017-01-07 11:09:21.941] [INFO] api - Get Invoice Details By User Id Counter Value5
[2017-01-07 11:09:25.268] [INFO] api - Get Details By Invoice Number Counter Value4
[2017-01-07 11:09:26.850] [INFO] api - Sucessfully getting the part code in pow1
[2017-01-07 11:09:27.179] [INFO] api - Connection Established To MongoDB
[2017-01-07 11:09:27.179] [INFO] api - End Get Retailer List counter Value3
[2017-01-07 11:09:29.056] [INFO] api - Sucessfully getting the retailer list2417
[2017-01-07 11:09:29.361] [INFO] api - End Invoice Details By User Id Counter Value2
[2017-01-07 11:09:30.961] [INFO] api - Sucessfully invoice details based on user id58
[2017-01-07 11:09:44.604] [INFO] api - Get Search By Part Cose Counter Value3
[2017-01-07 11:09:50.026] [INFO] api - Sucessfully getting sku list1
[2017-01-07 11:09:53.779] [INFO] api - Sucessfully getting the part code in pow0
[2017-01-07 11:09:57.952] [INFO] api - Get Search By Part Cose Counter Value4
[2017-01-07 11:10:01.792] [INFO] api - Sucessfully getting sku list1
[2017-01-07 11:10:07.121] [INFO] api - Sucessfully getting the part code in pow0
[2017-01-07 11:19:53.051] [INFO] api - Get Program Counter Value 5
[2017-01-07 11:19:53.051] [INFO] api - Get Date Check Counter Value6
[2017-01-07 11:19:53.052] [INFO] api - End Get Date Check Counter Value5
[2017-01-07 11:19:53.053] [INFO] api - Get Date Check Counter Value6
[2017-01-07 11:19:53.053] [INFO] api - End Get Date Check Counter Value5
[2017-01-07 11:19:53.053] [INFO] api - End Get Program Counter Value4
[2017-01-07 11:20:34.616] [INFO] api - Connection Established To Big MongoDB
[2017-01-07 11:20:51.307] [INFO] api - Get Retailer List Counter Value1
[2017-01-07 11:20:51.406] [INFO] api - Get Invoice Number Counter Value2
[2017-01-07 11:20:51.416] [INFO] api - Get Invoice Details By User Id Counter Value3
[2017-01-07 11:20:54.517] [INFO] api - Get Details By Invoice Number Counter Value2
[2017-01-07 11:20:54.586] [INFO] api - End Invoice Details By User Id Counter Value1
[2017-01-07 11:20:55.516] [INFO] api - Sucessfully getting the part code in pow1
[2017-01-07 11:20:57.237] [INFO] api - Sucessfully invoice details based on user id59
[2017-01-07 11:20:57.248] [INFO] api - Connection Established To MongoDB
[2017-01-07 11:20:57.249] [INFO] api - End Get Retailer List counter Value0
[2017-01-07 11:20:58.839] [INFO] api - Sucessfully getting the retailer list2417
[2017-01-07 11:21:05.252] [INFO] api - Get Search By Part Cose Counter Value1
[2017-01-07 11:21:09.884] [INFO] api - Sucessfully getting sku list1
[2017-01-07 11:21:14.786] [INFO] api - Sucessfully getting the part code in pow0
[2017-01-07 11:21:21.631] [INFO] api - Get Search By Part Cose Counter Value2
[2017-01-07 11:21:26.414] [INFO] api - Sucessfully getting sku list1
[2017-01-07 11:21:30.980] [INFO] api - Sucessfully getting the part code in pow0
[2017-01-07 11:22:18.347] [INFO] api - Get Program Counter Value 3
[2017-01-07 11:22:18.347] [INFO] api - Get Date Check Counter Value4
[2017-01-07 11:22:18.348] [INFO] api - End Get Date Check Counter Value3
[2017-01-07 11:22:18.349] [INFO] api - Get Date Check Counter Value4
[2017-01-07 11:22:18.349] [INFO] api - End Get Date Check Counter Value3
[2017-01-07 11:22:18.349] [INFO] api - End Get Program Counter Value2
[2017-01-07 11:24:06.262] [INFO] api - Connection Established To Big MongoDB
[2017-01-07 11:24:55.634] [INFO] api - Get Program Counter Value 1
[2017-01-07 11:24:55.634] [INFO] api - Get Date Check Counter Value2
[2017-01-07 11:24:55.635] [INFO] api - End Get Date Check Counter Value1
[2017-01-07 11:24:55.635] [INFO] api - Get Date Check Counter Value2
[2017-01-07 11:24:55.635] [INFO] api - End Get Date Check Counter Value1
[2017-01-07 11:24:55.635] [INFO] api - End Get Program Counter Value0
[2017-01-07 11:25:00.059] [INFO] api - Get Details By Invoice Number Counter Value-1
[2017-01-07 11:25:00.333] [INFO] api - Sucessfully getting the part code in powundefined
[2017-01-07 11:26:35.439] [INFO] api - Get Retailer List Counter Value0
[2017-01-07 11:26:35.555] [INFO] api - Get Invoice Number Counter Value1
[2017-01-07 11:26:35.566] [INFO] api - Get Invoice Details By User Id Counter Value2
[2017-01-07 11:26:40.334] [INFO] api - End Invoice Details By User Id Counter Value1
[2017-01-07 11:26:40.533] [INFO] api - Get Details By Invoice Number Counter Value0
[2017-01-07 11:26:40.592] [INFO] api - Connection Established To MongoDB
[2017-01-07 11:26:40.592] [INFO] api - End Get Retailer List counter Value-1
[2017-01-07 11:26:40.817] [INFO] api - Sucessfully getting the part code in pow1
[2017-01-07 11:26:42.002] [INFO] api - Sucessfully invoice details based on user id59
[2017-01-07 11:26:42.033] [INFO] api - Sucessfully getting the retailer list2417
[2017-01-07 11:26:45.584] [INFO] api - Get Invoice By Status Compnay name Counter Value0
[2017-01-07 11:26:50.189] [INFO] api - Connection Established To MongoDB
[2017-01-07 11:26:50.189] [INFO] api - End Invoice By Status Compnay name Counter Value-1
[2017-01-07 11:27:03.452] [INFO] api - Sucessfully getting the part code in pow4268
[2017-01-07 11:27:03.820] [INFO] api - Get Invoice By Status Compnay name Counter Value0
[2017-01-07 11:27:08.418] [INFO] api - Connection Established To MongoDB
[2017-01-07 11:27:08.419] [INFO] api - End Invoice By Status Compnay name Counter Value-1
[2017-01-07 11:27:18.353] [INFO] api - Sucessfully getting the part code in pow4268
[2017-01-07 11:27:37.933] [INFO] api - Get Invoice By Status Compnay name Counter Value0
[2017-01-07 11:27:42.585] [INFO] api - Connection Established To MongoDB
[2017-01-07 11:27:42.585] [INFO] api - End Invoice By Status Compnay name Counter Value-1
[2017-01-07 11:27:42.871] [INFO] api - Sucessfully getting the part code in pow12
[2017-01-07 11:27:50.007] [INFO] api - Get Retailer List Counter Value0
[2017-01-07 11:27:50.015] [INFO] api - Get Invoice Number Counter Value1
[2017-01-07 11:27:50.023] [INFO] api - Get Invoice Details By User Id Counter Value2
[2017-01-07 11:27:56.643] [INFO] api - Connection Established To MongoDB
[2017-01-07 11:27:56.644] [INFO] api - End Get Retailer List counter Value1
[2017-01-07 11:27:56.646] [INFO] api - Get Details By Invoice Number Counter Value0
[2017-01-07 11:27:56.911] [INFO] api - End Invoice Details By User Id Counter Value-1
