[2017-01-07 12:00:25.526] [INFO] api - Connection Established To MongoDB
[2017-01-07 12:00:25.527] [INFO] api - End Invoice By Status Compnay name Counter Value0
[2017-01-07 12:00:26.087] [INFO] api - Sucessfully getting the part code in pow26
[2017-01-07 12:00:33.491] [INFO] api - Get Retailer List Counter Value1
[2017-01-07 12:00:33.665] [INFO] api - Get Invoice Number Counter Value2
[2017-01-07 12:00:33.793] [INFO] api - Get Invoice Details By User Id Counter Value3
[2017-01-07 12:00:40.580] [INFO] api - Connection Established To MongoDB
[2017-01-07 12:00:40.581] [INFO] api - End Get Retailer List counter Value2
[2017-01-07 12:00:40.582] [INFO] api - Get Details By Invoice Number Counter Value1
[2017-01-07 12:00:40.851] [INFO] api - End Invoice Details By User Id Counter Value0
[2017-01-07 12:00:40.867] [INFO] api - Sucessfully getting the part code in pow1
[2017-01-07 12:00:41.722] [INFO] api - Sucessfully getting the retailer list2417
[2017-01-07 12:00:41.897] [INFO] api - Sucessfully invoice details based on user id61
[2017-01-07 12:00:46.897] [INFO] api - Get Search By Part Cose Counter Value1
[2017-01-07 12:00:50.285] [INFO] api - Sucessfully getting sku list1
[2017-01-07 12:00:55.104] [INFO] api - Sucessfully getting the part code in pow0
[2017-01-07 12:01:00.763] [INFO] api - Get Search By Part Cose Counter Value2
[2017-01-07 12:01:05.628] [INFO] api - Sucessfully getting sku list1
[2017-01-07 12:01:10.238] [INFO] api - Sucessfully getting the part code in pow0
[2017-01-07 12:01:24.907] [INFO] api - Get Program Counter Value 3
[2017-01-07 12:01:24.908] [INFO] api - Get Date Check Counter Value4
[2017-01-07 12:01:24.909] [INFO] api - End Get Date Check Counter Value3
[2017-01-07 12:01:24.909] [INFO] api - Get Date Check Counter Value4
[2017-01-07 12:01:24.909] [INFO] api - End Get Date Check Counter Value3
[2017-01-07 12:01:24.909] [INFO] api - End Get Program Counter Value2
[2017-01-07 12:01:29.453] [INFO] api - Get Details By Invoice Number Counter Value1
[2017-01-07 12:01:29.733] [INFO] api - Sucessfully getting the part code in powundefined
[2017-01-07 12:04:47.872] [INFO] api - Connection Established To Big MongoDB
[2017-01-07 12:04:51.295] [INFO] api - Get Invoice By Status Compnay name Counter Value1
[2017-01-07 12:04:55.698] [INFO] api - Connection Established To MongoDB
[2017-01-07 12:04:55.702] [INFO] api - End Invoice By Status Compnay name Counter Value0
[2017-01-07 12:04:56.258] [INFO] api - Sucessfully getting the part code in pow26
[2017-01-07 12:04:56.267] [INFO] api - Get Invoice By Status Compnay name Counter Value1
[2017-01-07 12:05:00.748] [INFO] api - Connection Established To MongoDB
[2017-01-07 12:05:00.749] [INFO] api - End Invoice By Status Compnay name Counter Value0
[2017-01-07 12:05:01.305] [INFO] api - Sucessfully getting the part code in pow26
[2017-01-07 12:05:30.491] [INFO] api - Get Invoice By Status Compnay name Counter Value1
[2017-01-07 12:05:35.194] [INFO] api - Connection Established To MongoDB
[2017-01-07 12:05:35.194] [INFO] api - End Invoice By Status Compnay name Counter Value0
[2017-01-07 12:05:35.749] [INFO] api - Sucessfully getting the part code in pow26
[2017-01-07 12:05:35.753] [INFO] api - Get Invoice By Status Compnay name Counter Value1
[2017-01-07 12:05:40.096] [INFO] api - Get Invoice By Status Compnay name Counter Value2
[2017-01-07 12:05:40.639] [INFO] api - Connection Established To MongoDB
[2017-01-07 12:05:40.639] [INFO] api - End Invoice By Status Compnay name Counter Value1
[2017-01-07 12:05:41.193] [INFO] api - Sucessfully getting the part code in pow27
[2017-01-07 12:05:45.255] [INFO] api - Connection Established To MongoDB
[2017-01-07 12:05:45.256] [INFO] api - End Invoice By Status Compnay name Counter Value0
[2017-01-07 12:05:45.817] [INFO] api - Sucessfully getting the part code in pow27
[2017-01-07 12:05:45.823] [INFO] api - Get Invoice By Status Compnay name Counter Value1
[2017-01-07 12:05:49.094] [INFO] api - Connection Established To MongoDB
[2017-01-07 12:05:49.095] [INFO] api - End Invoice By Status Compnay name Counter Value0
[2017-01-07 12:05:49.647] [INFO] api - Sucessfully getting the part code in pow27
[2017-01-07 12:05:57.760] [INFO] api - Get Retailer List Counter Value1
[2017-01-07 12:05:57.912] [INFO] api - Get Invoice Number Counter Value2
[2017-01-07 12:05:57.916] [INFO] api - Get Invoice Details By User Id Counter Value3
[2017-01-07 12:06:01.911] [INFO] api - End Invoice Details By User Id Counter Value2
[2017-01-07 12:06:04.173] [INFO] api - Sucessfully invoice details based on user id61
[2017-01-07 12:06:04.183] [INFO] api - Connection Established To MongoDB
[2017-01-07 12:06:04.184] [INFO] api - End Get Retailer List counter Value1
[2017-01-07 12:06:04.459] [INFO] api - Get Details By Invoice Number Counter Value0
[2017-01-07 12:06:04.736] [INFO] api - Sucessfully getting the part code in pow1
[2017-01-07 12:06:05.317] [INFO] api - Sucessfully getting the retailer list2417
[2017-01-07 12:06:16.050] [INFO] api - Get Search By Part Cose Counter Value1
[2017-01-07 12:06:21.061] [INFO] api - Sucessfully getting sku list1
[2017-01-07 12:06:22.174] [INFO] api - Get Search By Part Cose Counter Value2
[2017-01-07 12:06:24.496] [INFO] api - Sucessfully getting the part code in pow0
[2017-01-07 12:06:27.419] [INFO] api - Sucessfully getting sku list1
[2017-01-07 12:06:30.966] [INFO] api - Sucessfully getting the part code in pow0
[2017-01-07 12:06:38.407] [INFO] api - Get Search By Part Cose Counter Value3
[2017-01-07 12:06:42.935] [INFO] api - Sucessfully getting sku list1
[2017-01-07 12:06:46.359] [INFO] api - Sucessfully getting the part code in pow0
[2017-01-07 12:06:51.566] [INFO] api - Get Search By Part Cose Counter Value4
[2017-01-07 12:06:56.252] [INFO] api - Sucessfully getting sku list1
[2017-01-07 12:07:01.260] [INFO] api - Sucessfully getting the part code in pow0
[2017-01-07 12:07:13.432] [INFO] api - Get Program Counter Value 5
[2017-01-07 12:07:13.433] [INFO] api - Get Date Check Counter Value6
[2017-01-07 12:07:13.433] [INFO] api - End Get Date Check Counter Value5
[2017-01-07 12:07:13.433] [INFO] api - Get Date Check Counter Value6
[2017-01-07 12:07:13.433] [INFO] api - End Get Date Check Counter Value5
[2017-01-07 12:07:13.433] [INFO] api - End Get Program Counter Value4
[2017-01-07 12:07:16.593] [INFO] api - Get Details By Invoice Number Counter Value3
[2017-01-07 12:07:16.873] [INFO] api - Sucessfully getting the part code in powundefined
[2017-01-07 12:07:44.473] [INFO] api - Connection Established To Big MongoDB
[2017-01-07 12:07:54.201] [INFO] api - Get Invoice By Status Compnay name Counter Value1
[2017-01-07 12:07:58.704] [INFO] api - Connection Established To MongoDB
[2017-01-07 12:07:58.708] [INFO] api - End Invoice By Status Compnay name Counter Value0
[2017-01-07 12:07:59.280] [INFO] api - Sucessfully getting the part code in pow28
[2017-01-07 12:07:59.289] [INFO] api - Get Invoice By Status Compnay name Counter Value1
[2017-01-07 12:08:08.570] [INFO] api - Connection Established To Big MongoDB
[2017-01-07 12:09:04.688] [INFO] api - Get Retailer List Counter Value1
[2017-01-07 12:09:04.695] [INFO] api - Get Invoice Number Counter Value2
[2017-01-07 12:09:04.699] [INFO] api - Get Invoice Details By User Id Counter Value3
[2017-01-07 12:09:09.421] [INFO] api - Get Details By Invoice Number Counter Value2
[2017-01-07 12:09:09.478] [INFO] api - End Invoice Details By User Id Counter Value1
[2017-01-07 12:09:10.629] [INFO] api - Sucessfully getting the part code in pow1
[2017-01-07 12:09:10.921] [INFO] api - Sucessfully invoice details based on user id61
[2017-01-07 12:09:11.211] [INFO] api - Connection Established To MongoDB
[2017-01-07 12:09:11.212] [INFO] api - End Get Retailer List counter Value0
[2017-01-07 12:09:12.350] [INFO] api - Sucessfully getting the retailer list2417
[2017-01-07 12:09:22.972] [INFO] api - Get Search By Part Cose Counter Value1
[2017-01-07 12:09:27.714] [INFO] api - Sucessfully getting sku list1
[2017-01-07 12:09:32.267] [INFO] api - Sucessfully getting the part code in pow0
[2017-01-07 12:09:47.374] [INFO] api - Get Search By Part Cose Counter Value2
[2017-01-07 12:09:52.028] [INFO] api - Sucessfully getting sku list1
[2017-01-07 12:09:55.486] [INFO] api - Sucessfully getting the part code in pow0
[2017-01-07 12:10:12.106] [INFO] api - Get Program Counter Value 3
[2017-01-07 12:10:12.106] [INFO] api - Get Date Check Counter Value4
[2017-01-07 12:10:12.107] [INFO] api - End Get Date Check Counter Value3
[2017-01-07 12:10:12.107] [INFO] api - Get Date Check Counter Value4
[2017-01-07 12:10:12.107] [INFO] api - End Get Date Check Counter Value3
[2017-01-07 12:10:12.107] [INFO] api - End Get Program Counter Value2
[2017-01-07 12:10:15.379] [INFO] api - Get Details By Invoice Number Counter Value1
[2017-01-07 12:10:15.660] [INFO] api - Sucessfully getting the part code in powundefined
[2017-01-07 12:12:32.009] [INFO] api - Get Retailer List Counter Value2
[2017-01-07 12:12:32.016] [INFO] api - Get Invoice Number Counter Value3
[2017-01-07 12:12:32.143] [INFO] api - Get Invoice Details By User Id Counter Value4
[2017-01-07 12:12:36.501] [INFO] api - Get Invoice By Status Compnay name Counter Value5
[2017-01-07 12:12:36.982] [INFO] api - End Invoice Details By User Id Counter Value4
[2017-01-07 12:12:37.048] [INFO] api - Get Details By Invoice Number Counter Value3
[2017-01-07 12:12:38.176] [INFO] api - Sucessfully getting the part code in pow1
[2017-01-07 12:12:38.461] [INFO] api - Sucessfully invoice details based on user id61
[2017-01-07 12:12:38.726] [INFO] api - Connection Established To MongoDB
[2017-01-07 12:12:38.727] [INFO] api - End Get Retailer List counter Value2
[2017-01-07 12:12:40.334] [INFO] api - Sucessfully getting the retailer list2417
[2017-01-07 12:12:42.041] [INFO] api - Connection Established To MongoDB
[2017-01-07 12:12:42.043] [INFO] api - End Invoice By Status Compnay name Counter Value1
[2017-01-07 12:12:42.610] [INFO] api - Sucessfully getting the part code in pow28
[2017-01-07 12:12:42.616] [INFO] api - Get Invoice By Status Compnay name Counter Value2
[2017-01-07 12:12:45.780] [INFO] api - Connection Established To MongoDB
[2017-01-07 12:12:45.780] [INFO] api - End Invoice By Status Compnay name Counter Value1
[2017-01-07 12:12:46.338] [INFO] api - Sucessfully getting the part code in pow28
[2017-01-07 12:13:10.255] [INFO] api - Get Invoice By Status Compnay name Counter Value2
[2017-01-07 12:13:13.483] [INFO] api - Connection Established To MongoDB
[2017-01-07 12:13:13.483] [INFO] api - End Invoice By Status Compnay name Counter Value1
[2017-01-07 12:13:14.040] [INFO] api - Sucessfully getting the part code in pow29
[2017-01-07 12:13:14.045] [INFO] api - Get Invoice By Status Compnay name Counter Value2
[2017-01-07 12:13:17.259] [INFO] api - Connection Established To MongoDB
[2017-01-07 12:13:17.260] [INFO] api - End Invoice By Status Compnay name Counter Value1
[2017-01-07 12:13:17.819] [INFO] api - Sucessfully getting the part code in pow29
[2017-01-07 12:13:27.323] [INFO] api - Get Retailer List Counter Value2
[2017-01-07 12:13:27.329] [INFO] api - Get Invoice Number Counter Value3
[2017-01-07 12:13:27.335] [INFO] api - Get Invoice Details By User Id Counter Value4
[2017-01-07 12:13:31.969] [INFO] api - End Invoice Details By User Id Counter Value3
[2017-01-07 12:13:32.218] [INFO] api - Connection Established To MongoDB
[2017-01-07 12:13:32.219] [INFO] api - End Get Retailer List counter Value2
[2017-01-07 12:13:33.703] [INFO] api - Sucessfully invoice details based on user id61
[2017-01-07 12:13:33.988] [INFO] api - Get Details By Invoice Number Counter Value1
[2017-01-07 12:13:34.438] [INFO] api - Sucessfully getting the part code in pow1
[2017-01-07 12:13:34.441] [INFO] api - Sucessfully getting the retailer list2417
[2017-01-07 12:13:39.616] [INFO] api - Get Search By Part Cose Counter Value2
[2017-01-07 12:13:44.421] [INFO] api - Sucessfully getting sku list1
[2017-01-07 12:13:49.352] [INFO] api - Sucessfully getting the part code in pow0
[2017-01-07 12:13:54.749] [INFO] api - Get Search By Part Cose Counter Value3
[2017-01-07 12:13:59.480] [INFO] api - Sucessfully getting sku list1
[2017-01-07 12:14:04.091] [INFO] api - Sucessfully getting the part code in pow0
[2017-01-07 12:18:14.838] [INFO] api - Get Program Counter Value 1
[2017-01-07 12:18:14.840] [INFO] api - Get Date Check Counter Value2
[2017-01-07 12:18:14.842] [INFO] api - End Get Date Check Counter Value1
[2017-01-07 12:18:14.842] [INFO] api - Get Date Check Counter Value2
[2017-01-07 12:18:14.842] [INFO] api - End Get Date Check Counter Value1
[2017-01-07 12:18:14.842] [INFO] api - End Get Program Counter Value0
[2017-01-07 12:18:17.803] [INFO] api - Connection Established To Big MongoDB
[2017-01-07 12:19:32.490] [INFO] api - Get Invoice By Status Compnay name Counter Value1
[2017-01-07 12:19:34.875] [INFO] api - Connection Established To Big MongoDB
[2017-01-07 12:19:36.822] [INFO] api - Get Retailer List Counter Value2
[2017-01-07 12:19:36.831] [INFO] api - Get Invoice Number Counter Value3
[2017-01-07 12:19:36.837] [INFO] api - Get Invoice Details By User Id Counter Value4
[2017-01-07 12:19:37.358] [INFO] api - Connection Established To MongoDB
[2017-01-07 12:19:37.361] [INFO] api - End Invoice By Status Compnay name Counter Value3
[2017-01-07 12:19:37.927] [INFO] api - Sucessfully getting the part code in pow31
[2017-01-07 12:19:37.998] [INFO] api - Get Invoice By Status Compnay name Counter Value4
[2017-01-07 12:19:40.945] [INFO] api - End Invoice Details By User Id Counter Value3
[2017-01-07 12:19:44.012] [INFO] api - Sucessfully invoice details based on user id61
[2017-01-07 12:19:44.024] [INFO] api - Get Details By Invoice Number Counter Value2
[2017-01-07 12:19:44.308] [INFO] api - Connection Established To MongoDB
[2017-01-07 12:19:44.309] [INFO] api - End Get Retailer List counter Value1
[2017-01-07 12:19:44.323] [INFO] api - Sucessfully getting the part code in pow1
[2017-01-07 12:19:46.204] [INFO] api - Sucessfully getting the retailer list2417
[2017-01-07 12:19:46.454] [INFO] api - Connection Established To MongoDB
[2017-01-07 12:19:46.455] [INFO] api - End Invoice By Status Compnay name Counter Value0
[2017-01-07 12:19:47.015] [INFO] api - Sucessfully getting the part code in pow31
[2017-01-07 12:20:00.675] [INFO] api - Get Program Counter Value 1
[2017-01-07 12:20:00.675] [INFO] api - Get Date Check Counter Value2
[2017-01-07 12:20:00.676] [INFO] api - End Get Date Check Counter Value1
[2017-01-07 12:20:00.676] [INFO] api - Get Date Check Counter Value2
[2017-01-07 12:20:00.676] [INFO] api - End Get Date Check Counter Value1
[2017-01-07 12:20:00.676] [INFO] api - End Get Program Counter Value0
[2017-01-07 12:20:34.465] [INFO] api - Connection Established To Big MongoDB
[2017-01-07 12:20:39.196] [INFO] api - Get Program Counter Value 1
[2017-01-07 12:20:39.196] [INFO] api - Get Date Check Counter Value2
[2017-01-07 12:20:39.196] [INFO] api - End Get Date Check Counter Value1
[2017-01-07 12:20:39.196] [INFO] api - Get Date Check Counter Value2
[2017-01-07 12:20:39.196] [INFO] api - End Get Date Check Counter Value1
[2017-01-07 12:20:39.196] [INFO] api - End Get Program Counter Value0
[2017-01-07 12:21:13.686] [INFO] api - Connection Established To Big MongoDB
[2017-01-07 12:21:16.387] [INFO] api - Get Program Counter Value 1
[2017-01-07 12:21:16.388] [INFO] api - Get Date Check Counter Value2
[2017-01-07 12:21:16.388] [INFO] api - End Get Date Check Counter Value1
[2017-01-07 12:21:16.388] [INFO] api - Get Date Check Counter Value2
[2017-01-07 12:21:16.388] [INFO] api - End Get Date Check Counter Value1
[2017-01-07 12:21:16.388] [INFO] api - End Get Program Counter Value0
[2017-01-07 12:21:57.601] [INFO] api - Connection Established To Big MongoDB
[2017-01-07 12:22:01.550] [INFO] api - Get Program Counter Value 1
[2017-01-07 12:22:01.551] [INFO] api - Get Date Check Counter Value2
[2017-01-07 12:22:01.551] [INFO] api - End Get Date Check Counter Value1
[2017-01-07 12:22:01.551] [INFO] api - Get Date Check Counter Value2
[2017-01-07 12:22:01.551] [INFO] api - End Get Date Check Counter Value1
[2017-01-07 12:22:01.551] [INFO] api - End Get Program Counter Value0
[2017-01-07 12:26:38.534] [INFO] api - Enter login api counter_value1
[2017-01-07 12:26:38.538] [INFO] api - Closing login api counter_value0
[2017-01-07 12:26:39.770] [INFO] api - user login validated from mysql
[2017-01-07 12:26:40.289] [INFO] api - Get Lost Point Api Counter Value1
[2017-01-07 12:26:40.299] [INFO] api - End  Get Lost Point Api Counter Value0
[2017-01-07 12:26:40.301] [INFO] api - Get Points Pending For Payment Counter Value1
[2017-01-07 12:26:40.308] [INFO] api -  End Get Points Pending For Payment Counter Value0
[2017-01-07 12:26:40.512] [INFO] api - Calculate User Id Counter Value1
[2017-01-07 12:26:40.517] [INFO] api - End Point Calculate Counter Value0
[2017-01-07 12:26:40.517] [INFO] api - Get Details Total Sales Counter Value1
[2017-01-07 12:26:40.522] [INFO] api - Get Details Total Sales Counter Value0
[2017-01-07 12:26:40.524] [INFO] api - Get Top Si Counter Value1
[2017-01-07 12:26:40.528] [INFO] api - End Get Top Si Counter Value0
[2017-01-07 12:26:40.530] [INFO] api - Get User Goal Counter Value1
[2017-01-07 12:26:40.531] [INFO] api - End Get User Goal Counter Value0
[2017-01-07 12:26:41.641] [INFO] api - Get User Proceeding Invoice Current Month1
[2017-01-07 12:26:41.644] [INFO] api - End Get User Proceeding Invoice Current Month0
[2017-01-07 12:26:47.033] [INFO] api - Get User Si All Counter Value1
[2017-01-07 12:26:47.036] [INFO] api - End Get User Si All Counter Value0
[2017-01-07 12:26:47.038] [INFO] api - Sucessfully getting the part code in pow62
[2017-01-07 12:26:47.418] [INFO] api - Get Distributor List1
[2017-01-07 12:26:47.419] [INFO] api - End Get Distributor List0
[2017-01-07 12:26:47.690] [INFO] api - Connection Established To MongoDB
[2017-01-07 12:26:47.702] [INFO] api - Sucessfully getting lost points0
[2017-01-07 12:26:47.972] [INFO] api - Sucessfully getting total sales details by user3
[2017-01-07 12:26:49.446] [INFO] api - Connection Established To MongoDB
[2017-01-07 12:26:49.724] [INFO] api - Sucessfully getting user precedding invoice month6
[2017-01-07 12:26:57.424] [INFO] api - { [Error: connect ETIMEDOUT]
  errorno: 'ETIMEDOUT',
  code: 'ETIMEDOUT',
  syscall: 'connect',
  fatal: true }
Error: connect ETIMEDOUT
    at Connection._handleTimeoutError (D:\Annectos\PROJECT_2017\SEEP_2017\TEST_POINTS(1-7-2017)\baya.program.new.api\node_modules\mysql2\lib\connection.js:179:13)
    at Timer.listOnTimeout [as ontimeout] (timers.js:110:15)
[2017-01-07 12:26:58.557] [INFO] api - Inside Upload File Counter Value1
[2017-01-07 12:26:58.561] [INFO] api - End Inside Upload File Counter Value0
[2017-01-07 12:27:05.139] [INFO] api - Connection Established To MongoDB
[2017-01-07 12:27:05.428] [INFO] api - Sucessfully getting top si15
[2017-01-07 12:27:12.695] [INFO] api - Connection Established To MongoDB
[2017-01-07 12:27:13.548] [INFO] api - Sucessfully getting si all india dashborad409
[2017-01-07 12:27:25.525] [INFO] api - Get Distributor List1
[2017-01-07 12:27:25.526] [INFO] api - End Get Distributor List0
[2017-01-07 12:27:40.193] [INFO] api - Inside Upload File Counter Value1
[2017-01-07 12:27:40.194] [INFO] api - End Inside Upload File Counter Value0
[2017-01-07 12:27:46.115] [INFO] api - Invoice Add Call In api.js
[2017-01-07 12:27:46.115] [INFO] api - Get Program Counter Value 1
[2017-01-07 12:27:46.115] [INFO] api - Get Date Check Counter Value2
[2017-01-07 12:27:46.115] [INFO] api - End Get Date Check Counter Value1
[2017-01-07 12:27:46.115] [INFO] api - Get Date Check Counter Value2
[2017-01-07 12:27:46.116] [INFO] api - End Get Date Check Counter Value1
[2017-01-07 12:27:46.116] [INFO] api - End Get Program Counter Value0
[2017-01-07 12:27:46.116] [INFO] api - Creating The Invoice Data
[2017-01-07 12:27:46.117] [INFO] api - Checking Invoice Existance : 567 Cache Technologies Private Limited
[2017-01-07 12:27:46.399] [INFO] api - Checking Invoice Existance Result
[2017-01-07 12:27:46.399] [INFO] api - []
[2017-01-07 12:27:46.399] [INFO] api - Invoice Not Exist
[2017-01-07 12:27:46.680] [INFO] api - Invoice Added In Sales Registry
