[2017-01-07 11:27:56.931] [INFO] api - Sucessfully getting the part code in pow1
[2017-01-07 11:27:57.750] [INFO] api - Sucessfully invoice details based on user id59
[2017-01-07 11:27:57.763] [INFO] api - Sucessfully getting the retailer list2417
[2017-01-07 11:28:10.265] [INFO] api - Get Search By Part Cose Counter Value0
[2017-01-07 11:28:15.228] [INFO] api - Sucessfully getting sku list1
[2017-01-07 11:28:20.890] [INFO] api - Sucessfully getting the part code in pow0
[2017-01-07 11:28:23.822] [INFO] api - Get Search By Part Cose Counter Value1
[2017-01-07 11:28:28.446] [INFO] api - Sucessfully getting sku list1
[2017-01-07 11:28:33.086] [INFO] api - Sucessfully getting the part code in pow0
[2017-01-07 11:29:05.174] [INFO] api - Get Program Counter Value 2
[2017-01-07 11:29:05.174] [INFO] api - Get Date Check Counter Value3
[2017-01-07 11:29:05.174] [INFO] api - End Get Date Check Counter Value2
[2017-01-07 11:29:05.174] [INFO] api - Get Date Check Counter Value3
[2017-01-07 11:29:05.174] [INFO] api - End Get Date Check Counter Value2
[2017-01-07 11:29:05.174] [INFO] api - End Get Program Counter Value1
[2017-01-07 11:29:08.379] [INFO] api - Get Details By Invoice Number Counter Value0
[2017-01-07 11:29:08.664] [INFO] api - Sucessfully getting the part code in powundefined
[2017-01-07 11:31:33.429] [INFO] api - Get Retailer List Counter Value1
[2017-01-07 11:31:33.527] [INFO] api - Get Invoice Number Counter Value2
[2017-01-07 11:31:33.533] [INFO] api - Get Invoice Details By User Id Counter Value3
[2017-01-07 11:31:40.043] [INFO] api - Connection Established To MongoDB
[2017-01-07 11:31:40.044] [INFO] api - End Get Retailer List counter Value2
[2017-01-07 11:31:40.049] [INFO] api - Get Details By Invoice Number Counter Value1
[2017-01-07 11:31:40.308] [INFO] api - End Invoice Details By User Id Counter Value0
[2017-01-07 11:31:40.325] [INFO] api - Sucessfully getting the part code in pow1
[2017-01-07 11:31:41.149] [INFO] api - Sucessfully invoice details based on user id59
[2017-01-07 11:31:41.183] [INFO] api - Sucessfully getting the retailer list2417
[2017-01-07 11:31:51.855] [INFO] api - Get Invoice By Status Compnay name Counter Value1
[2017-01-07 11:31:56.527] [INFO] api - Connection Established To MongoDB
[2017-01-07 11:31:56.528] [INFO] api - End Invoice By Status Compnay name Counter Value0
[2017-01-07 11:31:56.815] [INFO] api - Sucessfully getting the part code in pow13
[2017-01-07 11:31:58.789] [INFO] api - Get Retailer List Counter Value1
[2017-01-07 11:31:58.796] [INFO] api - Get Invoice Number Counter Value2
[2017-01-07 11:31:58.803] [INFO] api - Get Invoice Details By User Id Counter Value3
[2017-01-07 11:32:05.716] [INFO] api - Get Details By Invoice Number Counter Value2
[2017-01-07 11:32:05.719] [INFO] api - End Invoice Details By User Id Counter Value1
[2017-01-07 11:32:05.994] [INFO] api - Connection Established To MongoDB
[2017-01-07 11:32:05.995] [INFO] api - End Get Retailer List counter Value0
[2017-01-07 11:32:05.996] [INFO] api - Sucessfully getting the part code in pow1
[2017-01-07 11:32:06.563] [INFO] api - Sucessfully invoice details based on user id59
[2017-01-07 11:32:07.156] [INFO] api - Sucessfully getting the retailer list2417
[2017-01-07 11:32:22.363] [INFO] api - Get Search By Part Cose Counter Value1
[2017-01-07 11:32:27.063] [INFO] api - Sucessfully getting sku list1
[2017-01-07 11:32:31.651] [INFO] api - Sucessfully getting the part code in pow0
[2017-01-07 11:32:36.164] [INFO] api - Get Search By Part Cose Counter Value2
[2017-01-07 11:32:39.591] [INFO] api - Sucessfully getting sku list1
[2017-01-07 11:32:44.164] [INFO] api - Sucessfully getting the part code in pow0
[2017-01-07 11:33:01.816] [INFO] api - Get Program Counter Value 3
[2017-01-07 11:33:01.816] [INFO] api - Get Date Check Counter Value4
[2017-01-07 11:33:01.816] [INFO] api - End Get Date Check Counter Value3
[2017-01-07 11:33:01.816] [INFO] api - Get Date Check Counter Value4
[2017-01-07 11:33:01.816] [INFO] api - End Get Date Check Counter Value3
[2017-01-07 11:33:01.816] [INFO] api - End Get Program Counter Value2
[2017-01-07 11:33:06.559] [INFO] api - Get Details By Invoice Number Counter Value1
[2017-01-07 11:33:06.839] [INFO] api - Sucessfully getting the part code in powundefined
[2017-01-07 11:35:05.596] [INFO] api - Get Retailer List Counter Value2
[2017-01-07 11:35:05.734] [INFO] api - Get Invoice Number Counter Value3
[2017-01-07 11:35:05.737] [INFO] api - Get Invoice Details By User Id Counter Value4
[2017-01-07 11:35:09.803] [INFO] api - Get Details By Invoice Number Counter Value3
[2017-01-07 11:35:11.557] [INFO] api - Sucessfully getting the part code in pow1
[2017-01-07 11:35:11.845] [INFO] api - Connection Established To MongoDB
[2017-01-07 11:35:11.846] [INFO] api - End Get Retailer List counter Value2
[2017-01-07 11:35:11.915] [INFO] api - Get Invoice By Status Compnay name Counter Value3
[2017-01-07 11:35:12.116] [INFO] api - End Invoice Details By User Id Counter Value2
[2017-01-07 11:35:12.958] [INFO] api - Sucessfully invoice details based on user id59
[2017-01-07 11:35:12.969] [INFO] api - Sucessfully getting the retailer list2417
[2017-01-07 11:35:16.203] [INFO] api - Connection Established To MongoDB
[2017-01-07 11:35:16.203] [INFO] api - End Invoice By Status Compnay name Counter Value1
[2017-01-07 11:35:16.488] [INFO] api - Sucessfully getting the part code in pow13
[2017-01-07 11:35:20.630] [INFO] api - Get Retailer List Counter Value2
[2017-01-07 11:35:20.637] [INFO] api - Get Invoice Number Counter Value3
[2017-01-07 11:35:20.645] [INFO] api - Get Invoice Details By User Id Counter Value4
[2017-01-07 11:35:25.243] [INFO] api - Get Details By Invoice Number Counter Value3
[2017-01-07 11:35:26.310] [INFO] api - Sucessfully getting the part code in pow1
[2017-01-07 11:35:27.559] [INFO] api - Connection Established To MongoDB
[2017-01-07 11:35:27.560] [INFO] api - End Get Retailer List counter Value2
[2017-01-07 11:35:27.794] [INFO] api - End Invoice Details By User Id Counter Value1
[2017-01-07 11:35:28.635] [INFO] api - Sucessfully invoice details based on user id59
[2017-01-07 11:35:28.739] [INFO] api - Sucessfully getting the retailer list2417
[2017-01-07 11:35:31.721] [INFO] api - Get Search By Part Cose Counter Value2
[2017-01-07 11:35:36.641] [INFO] api - Sucessfully getting sku list1
[2017-01-07 11:35:41.493] [INFO] api - Sucessfully getting the part code in pow0
[2017-01-07 11:35:59.794] [INFO] api - Get Search By Part Cose Counter Value3
[2017-01-07 11:36:03.389] [INFO] api - Sucessfully getting sku list1
[2017-01-07 11:36:09.596] [INFO] api - Sucessfully getting the part code in pow0
[2017-01-07 11:36:32.755] [INFO] api - Get Program Counter Value 4
[2017-01-07 11:36:32.755] [INFO] api - Get Date Check Counter Value5
[2017-01-07 11:36:32.755] [INFO] api - End Get Date Check Counter Value4
[2017-01-07 11:36:32.755] [INFO] api - Get Date Check Counter Value5
[2017-01-07 11:36:32.755] [INFO] api - End Get Date Check Counter Value4
[2017-01-07 11:36:32.755] [INFO] api - End Get Program Counter Value3
[2017-01-07 11:36:37.530] [INFO] api - Get Details By Invoice Number Counter Value2
[2017-01-07 11:36:37.819] [INFO] api - Sucessfully getting the part code in powundefined
[2017-01-07 11:38:00.724] [INFO] api - Get Invoice By Status Compnay name Counter Value3
[2017-01-07 11:38:05.206] [INFO] api - Connection Established To MongoDB
[2017-01-07 11:38:05.207] [INFO] api - End Invoice By Status Compnay name Counter Value2
[2017-01-07 11:38:05.496] [INFO] api - Sucessfully getting the part code in pow13
[2017-01-07 11:38:05.499] [INFO] api - Get Invoice By Status Compnay name Counter Value3
[2017-01-07 11:38:07.867] [INFO] api - Get Retailer List Counter Value4
[2017-01-07 11:38:07.872] [INFO] api - Get Invoice Number Counter Value5
[2017-01-07 11:38:07.877] [INFO] api - Get Invoice Details By User Id Counter Value6
[2017-01-07 11:38:10.220] [INFO] api - Connection Established To MongoDB
[2017-01-07 11:38:10.221] [INFO] api - End Invoice By Status Compnay name Counter Value5
[2017-01-07 11:38:11.182] [INFO] api - Sucessfully getting the part code in pow13
[2017-01-07 11:38:14.895] [INFO] api - Connection Established To MongoDB
[2017-01-07 11:38:14.896] [INFO] api - End Get Retailer List counter Value4
[2017-01-07 11:38:14.903] [INFO] api - Get Details By Invoice Number Counter Value3
[2017-01-07 11:38:15.111] [INFO] api - Get Search By Part Cose Counter Value4
[2017-01-07 11:38:15.163] [INFO] api - End Invoice Details By User Id Counter Value3
[2017-01-07 11:38:15.179] [INFO] api - Sucessfully getting the part code in pow1
[2017-01-07 11:38:16.009] [INFO] api - Sucessfully invoice details based on user id59
[2017-01-07 11:38:16.031] [INFO] api - Sucessfully getting the retailer list2417
[2017-01-07 11:38:20.150] [INFO] api - Sucessfully getting sku list1
[2017-01-07 11:38:24.987] [INFO] api - Sucessfully getting the part code in pow0
[2017-01-07 11:38:38.664] [INFO] api - Get Search By Part Cose Counter Value4
[2017-01-07 11:38:43.306] [INFO] api - Sucessfully getting sku list1
[2017-01-07 11:38:46.725] [INFO] api - Sucessfully getting the part code in pow0
[2017-01-07 11:38:58.167] [INFO] api - Get Search By Part Cose Counter Value5
[2017-01-07 11:39:02.766] [INFO] api - Sucessfully getting sku list1
[2017-01-07 11:39:06.309] [INFO] api - Sucessfully getting the part code in pow0
[2017-01-07 11:39:15.698] [INFO] api - Get Search By Part Cose Counter Value6
[2017-01-07 11:39:20.217] [INFO] api - Sucessfully getting sku list1
[2017-01-07 11:39:24.769] [INFO] api - Sucessfully getting the part code in pow0
[2017-01-07 11:46:53.123] [INFO] api - Connection Established To Big MongoDB
[2017-01-07 11:46:53.165] [INFO] api - Enter login api counter_value1
[2017-01-07 11:46:53.168] [INFO] api - Closing login api counter_value0
[2017-01-07 11:46:54.742] [INFO] api - user login validated from mysql
[2017-01-07 11:46:55.353] [INFO] api - Get Lost Point Api Counter Value1
[2017-01-07 11:46:55.360] [INFO] api - End  Get Lost Point Api Counter Value0
[2017-01-07 11:46:55.367] [INFO] api - Get Points Pending For Payment Counter Value1
[2017-01-07 11:46:55.374] [INFO] api -  End Get Points Pending For Payment Counter Value0
[2017-01-07 11:46:55.562] [INFO] api - Calculate User Id Counter Value1
[2017-01-07 11:46:55.566] [INFO] api - End Point Calculate Counter Value0
[2017-01-07 11:46:55.569] [INFO] api - Get Details Total Sales Counter Value1
[2017-01-07 11:46:55.573] [INFO] api - Get Details Total Sales Counter Value0
[2017-01-07 11:46:55.574] [INFO] api - Get Top Si Counter Value1
[2017-01-07 11:46:55.577] [INFO] api - End Get Top Si Counter Value0
[2017-01-07 11:46:55.580] [INFO] api - Get User Goal Counter Value1
[2017-01-07 11:46:55.580] [INFO] api - End Get User Goal Counter Value0
[2017-01-07 11:46:56.732] [INFO] api - Get User Proceeding Invoice Current Month1
[2017-01-07 11:46:56.735] [INFO] api - End Get User Proceeding Invoice Current Month0
[2017-01-07 11:47:05.320] [INFO] api - Connection Established To MongoDB
[2017-01-07 11:47:05.729] [INFO] api - Connection Established To MongoDB
[2017-01-07 11:47:05.730] [INFO] api - Sucessfully getting lost points0
[2017-01-07 11:47:05.733] [INFO] api - Sucessfully getting top si15
[2017-01-07 11:47:05.738] [INFO] api - Get User Si All Counter Value1
[2017-01-07 11:47:05.743] [INFO] api - End Get User Si All Counter Value0
[2017-01-07 11:47:05.749] [INFO] api - Get Distributor List1
[2017-01-07 11:47:05.751] [INFO] api - End Get Distributor List0
[2017-01-07 11:47:06.009] [INFO] api - Sucessfully getting total sales details by user3
[2017-01-07 11:47:06.120] [INFO] api - Sucessfully getting the part code in pow62
[2017-01-07 11:47:08.048] [INFO] api - Connection Established To MongoDB
[2017-01-07 11:47:08.332] [INFO] api - Sucessfully getting user precedding invoice month6
[2017-01-07 11:47:10.987] [INFO] api - Connection Established To MongoDB
[2017-01-07 11:47:11.851] [INFO] api - Sucessfully getting si all india dashborad409
[2017-01-07 11:47:13.536] [INFO] api - Inside Upload File Counter Value1
[2017-01-07 11:47:13.538] [INFO] api - End Inside Upload File Counter Value0
[2017-01-07 11:47:18.540] [INFO] api - Invoice Add Call In api.js
[2017-01-07 11:47:18.542] [INFO] api - Get Program Counter Value 1
[2017-01-07 11:47:18.542] [INFO] api - Get Date Check Counter Value2
[2017-01-07 11:47:18.542] [INFO] api - End Get Date Check Counter Value1
[2017-01-07 11:47:18.542] [INFO] api - Get Date Check Counter Value2
[2017-01-07 11:47:18.543] [INFO] api - End Get Date Check Counter Value1
[2017-01-07 11:47:18.543] [INFO] api - End Get Program Counter Value0
[2017-01-07 11:47:18.543] [INFO] api - Creating The Invoice Data
[2017-01-07 11:47:18.547] [INFO] api - Checking Invoice Existance : gfhssh ECAPS Computers India Pvt. Ltd.
[2017-01-07 11:47:18.835] [INFO] api - Checking Invoice Existance Result
[2017-01-07 11:47:18.835] [INFO] api - []
[2017-01-07 11:47:18.835] [INFO] api - Invoice Not Exist
[2017-01-07 11:47:19.124] [INFO] api - Invoice Added In Sales Registry
[2017-01-07 11:47:19.400] [INFO] api - Points Added In Point Accrual
[2017-01-07 11:48:53.080] [INFO] api - Enter login api counter_value1
[2017-01-07 11:48:53.082] [INFO] api - Closing login api counter_value0
[2017-01-07 11:48:54.316] [INFO] api - user login validated from mysql
[2017-01-07 11:48:54.416] [INFO] api - Get Invoice By Status Compnay name Counter Value1
[2017-01-07 11:48:55.664] [INFO] api - Get Lost Point Api Counter Value2
[2017-01-07 11:48:55.669] [INFO] api - End  Get Lost Point Api Counter Value1
[2017-01-07 11:48:59.539] [INFO] api - Connection Established To MongoDB
[2017-01-07 11:48:59.541] [INFO] api - End Invoice By Status Compnay name Counter Value0
[2017-01-07 11:49:00.096] [INFO] api - Sucessfully getting the part code in pow20
[2017-01-07 11:49:00.099] [INFO] api - Sucessfully getting lost points0
[2017-01-07 11:49:00.101] [INFO] api - Get Invoice By Status Compnay name Counter Value1
[2017-01-07 11:49:04.829] [INFO] api - Connection Established To MongoDB
[2017-01-07 11:49:04.830] [INFO] api - End Invoice By Status Compnay name Counter Value0
[2017-01-07 11:49:05.403] [INFO] api - Sucessfully getting the part code in pow20
[2017-01-07 11:49:31.207] [INFO] api - Get Retailer List Counter Value1
[2017-01-07 11:49:31.405] [INFO] api - Get Invoice Number Counter Value2
[2017-01-07 11:49:31.408] [INFO] api - Get Invoice Details By User Id Counter Value3
[2017-01-07 11:49:35.841] [INFO] api - Get Details By Invoice Number Counter Value2
[2017-01-07 11:49:38.029] [INFO] api - Sucessfully getting the part code in pow1
[2017-01-07 11:49:38.332] [INFO] api - Connection Established To MongoDB
[2017-01-07 11:49:38.344] [INFO] api - End Get Retailer List counter Value1
[2017-01-07 11:49:38.605] [INFO] api - End Invoice Details By User Id Counter Value0
[2017-01-07 11:49:39.472] [INFO] api - Sucessfully invoice details based on user id61
[2017-01-07 11:49:39.496] [INFO] api - Sucessfully getting the retailer list2417
[2017-01-07 11:51:27.704] [INFO] api - Get Retailer List Counter Value1
[2017-01-07 11:51:27.712] [INFO] api - Get Invoice Number Counter Value2
[2017-01-07 11:51:27.719] [INFO] api - Get Invoice Details By User Id Counter Value3
[2017-01-07 11:51:34.512] [INFO] api - Get Details By Invoice Number Counter Value2
[2017-01-07 11:51:34.515] [INFO] api - Connection Established To MongoDB
[2017-01-07 11:51:34.515] [INFO] api - End Get Retailer List counter Value1
[2017-01-07 11:51:34.787] [INFO] api - End Invoice Details By User Id Counter Value0
[2017-01-07 11:51:34.791] [INFO] api - Sucessfully getting the part code in pow1
[2017-01-07 11:51:35.653] [INFO] api - Sucessfully getting the retailer list2417
[2017-01-07 11:51:35.827] [INFO] api - Sucessfully invoice details based on user id61
[2017-01-07 11:53:13.947] [INFO] api - Get Search By Part Cose Counter Value1
[2017-01-07 11:53:16.178] [INFO] api - Connection Established To Big MongoDB
[2017-01-07 11:53:18.277] [INFO] api - Sucessfully getting sku list1
[2017-01-07 11:53:21.885] [INFO] api - Sucessfully getting the part code in pow0
[2017-01-07 11:53:31.089] [INFO] api - Get Search By Part Cose Counter Value2
[2017-01-07 11:53:36.114] [INFO] api - Sucessfully getting sku list1
[2017-01-07 11:53:39.607] [INFO] api - Sucessfully getting the part code in pow0
[2017-01-07 11:54:59.803] [INFO] api - Connection Established To Big MongoDB
[2017-01-07 11:55:06.277] [INFO] api - Get Retailer List Counter Value1
[2017-01-07 11:55:06.285] [INFO] api - Get Invoice Number Counter Value2
[2017-01-07 11:55:06.581] [INFO] api - Get Invoice Details By User Id Counter Value3
[2017-01-07 11:55:10.781] [INFO] api - Connection Established To MongoDB
[2017-01-07 11:55:10.785] [INFO] api - End Get Retailer List counter Value2
[2017-01-07 11:55:10.878] [INFO] api - Get Invoice By Status Compnay name Counter Value3
[2017-01-07 11:55:11.043] [INFO] api - End Invoice Details By User Id Counter Value2
[2017-01-07 11:55:12.248] [INFO] api - Sucessfully invoice details based on user id61
[2017-01-07 11:55:12.533] [INFO] api - Get Details By Invoice Number Counter Value1
[2017-01-07 11:55:12.813] [INFO] api - Sucessfully getting the part code in pow1
[2017-01-07 11:55:12.820] [INFO] api - Sucessfully getting the retailer list2417
[2017-01-07 11:55:16.002] [INFO] api - Connection Established To MongoDB
[2017-01-07 11:55:16.002] [INFO] api - End Invoice By Status Compnay name Counter Value0
[2017-01-07 11:55:16.560] [INFO] api - Sucessfully getting the part code in pow25
[2017-01-07 11:55:16.565] [INFO] api - Get Invoice By Status Compnay name Counter Value1
[2017-01-07 11:55:20.868] [INFO] api - Connection Established To MongoDB
[2017-01-07 11:55:20.870] [INFO] api - End Invoice By Status Compnay name Counter Value0
[2017-01-07 11:55:21.427] [INFO] api - Sucessfully getting the part code in pow25
[2017-01-07 11:55:27.659] [INFO] api - Get Retailer List Counter Value1
[2017-01-07 11:55:27.667] [INFO] api - Get Invoice Number Counter Value2
[2017-01-07 11:55:27.674] [INFO] api - Get Invoice Details By User Id Counter Value3
[2017-01-07 11:55:32.554] [INFO] api - End Invoice Details By User Id Counter Value2
[2017-01-07 11:55:34.817] [INFO] api - Sucessfully invoice details based on user id61
[2017-01-07 11:55:34.820] [INFO] api - Connection Established To MongoDB
[2017-01-07 11:55:34.821] [INFO] api - End Get Retailer List counter Value1
[2017-01-07 11:55:35.086] [INFO] api - Get Details By Invoice Number Counter Value0
[2017-01-07 11:55:35.362] [INFO] api - Sucessfully getting the part code in pow1
[2017-01-07 11:55:35.953] [INFO] api - Sucessfully getting the retailer list2417
[2017-01-07 11:55:44.168] [INFO] api - Get Search By Part Cose Counter Value1
[2017-01-07 11:55:49.062] [INFO] api - Sucessfully getting sku list1
[2017-01-07 11:55:53.656] [INFO] api - Sucessfully getting the part code in pow0
[2017-01-07 11:55:56.938] [INFO] api - Get Search By Part Cose Counter Value2
[2017-01-07 11:56:01.520] [INFO] api - Sucessfully getting sku list1
[2017-01-07 11:56:06.059] [INFO] api - Sucessfully getting the part code in pow0
[2017-01-07 11:56:16.250] [INFO] api - Get Program Counter Value 3
[2017-01-07 11:56:16.251] [INFO] api - Get Date Check Counter Value4
[2017-01-07 11:56:16.252] [INFO] api - End Get Date Check Counter Value3
[2017-01-07 11:56:16.252] [INFO] api - Get Date Check Counter Value4
[2017-01-07 11:56:16.253] [INFO] api - End Get Date Check Counter Value3
[2017-01-07 11:56:16.253] [INFO] api - End Get Program Counter Value2
[2017-01-07 11:56:19.432] [INFO] api - Get Details By Invoice Number Counter Value1
[2017-01-07 11:56:19.712] [INFO] api - Sucessfully getting the part code in powundefined
[2017-01-07 11:58:03.068] [INFO] api - Connection Established To Big MongoDB
[2017-01-07 12:00:17.181] [INFO] api - Get Invoice By Status Compnay name Counter Value1
[2017-01-07 12:00:21.780] [INFO] api - Connection Established To MongoDB
[2017-01-07 12:00:21.784] [INFO] api - End Invoice By Status Compnay name Counter Value0
[2017-01-07 12:00:22.339] [INFO] api - Sucessfully getting the part code in pow26
[2017-01-07 12:00:22.346] [INFO] api - Get Invoice By Status Compnay name Counter Value1
