[2016-12-27 12:00:08.768] [INFO] audit - audit trail started
[2016-12-27 12:55:33.059] [INFO] audit - audit trail started
[2016-12-27 13:03:13.948] [INFO] audit - audit trail started
[2016-12-27 13:05:31.957] [INFO] audit - audit trail started
[2016-12-27 13:05:53.692] [INFO] audit - audit trail started
[2016-12-27 13:07:53.592] [INFO] audit - audit trail started
[2016-12-27 13:11:10.511] [INFO] audit - audit trail started
[2016-12-27 13:12:22.387] [INFO] audit - audit trail started
[2016-12-27 13:14:43.079] [INFO] audit - audit trail started
[2016-12-27 13:17:03.101] [INFO] audit - audit trail started
[2016-12-27 13:18:30.894] [INFO] audit - audit trail started
[2016-12-27 13:20:34.145] [INFO] audit - audit trail started
[2016-12-27 13:22:06.965] [INFO] audit - audit trail started
[2016-12-27 13:29:59.744] [INFO] audit - audit trail started
[2016-12-27 13:35:26.033] [INFO] audit - audit trail started
[2016-12-27 13:36:27.938] [INFO] audit - audit trail started
[2016-12-27 13:38:08.720] [INFO] audit - audit trail started
[2016-12-27 14:38:28.299] [INFO] audit - audit trail started
[2016-12-27 14:38:52.027] [INFO] audit - audit trail started
[2016-12-27 14:39:37.876] [INFO] audit - audit trail started
[2016-12-27 14:40:38.188] [INFO] audit - audit trail started
[2016-12-27 14:42:14.094] [INFO] audit - audit trail started
[2016-12-27 14:43:33.741] [INFO] audit - audit trail started
[2016-12-27 14:55:40.446] [INFO] audit - audit trail started
[2016-12-27 14:58:40.937] [INFO] audit - audit trail started
[2016-12-27 14:59:14.532] [INFO] audit - audit trail started
[2016-12-27 14:59:37.029] [INFO] audit - audit trail started
[2016-12-27 15:01:17.219] [INFO] audit - audit trail started
[2016-12-27 15:02:06.482] [INFO] audit - audit trail started
[2016-12-27 15:05:26.662] [INFO] audit - audit trail started
[2016-12-27 15:05:53.949] [INFO] audit - audit trail started
[2016-12-27 15:28:57.431] [INFO] audit - audit trail started
[2016-12-27 15:29:02.373] [INFO] audit - audit trail started
[2016-12-27 15:31:08.642] [INFO] audit - audit trail started
[2016-12-27 15:32:21.401] [INFO] audit - audit trail started
[2016-12-27 15:33:46.582] [INFO] audit - audit trail started
[2016-12-27 15:34:19.223] [INFO] audit - audit trail started
[2016-12-27 15:36:26.053] [INFO] audit - audit trail started
[2016-12-27 15:44:17.922] [INFO] audit - audit trail started
[2016-12-27 15:44:49.605] [INFO] audit - audit trail started
[2016-12-27 15:47:13.991] [INFO] audit - audit trail started
[2016-12-27 15:49:07.068] [INFO] audit - audit trail started
[2016-12-27 15:58:48.117] [INFO] audit - audit trail started
[2016-12-27 16:00:04.611] [INFO] audit - audit trail started
[2016-12-27 16:01:30.513] [INFO] audit - audit trail started
[2016-12-27 16:02:32.659] [INFO] audit - audit trail started
[2016-12-27 16:05:24.085] [INFO] audit - audit trail started
[2016-12-27 16:08:05.764] [INFO] audit - audit trail started
[2016-12-27 16:09:23.673] [INFO] audit - audit trail started
[2016-12-27 16:12:09.629] [INFO] audit - audit trail started
[2016-12-27 16:13:00.247] [INFO] audit - audit trail started
[2016-12-27 16:13:30.447] [INFO] audit - audit trail started
[2016-12-27 16:14:01.612] [INFO] audit - audit trail started
[2016-12-27 16:15:40.630] [INFO] audit - audit trail started
[2016-12-27 16:17:26.628] [INFO] audit - audit trail started
[2016-12-27 16:20:03.306] [INFO] audit - audit trail started
[2016-12-27 16:21:48.233] [INFO] audit - audit trail started
[2016-12-27 16:22:52.770] [INFO] audit - audit trail started
[2016-12-27 16:24:04.711] [INFO] audit - audit trail started
[2016-12-27 16:25:55.464] [INFO] audit - audit trail started
[2016-12-27 16:27:09.169] [INFO] audit - audit trail started
[2016-12-27 16:27:48.697] [INFO] audit - audit trail started
[2016-12-27 16:28:29.900] [INFO] audit - audit trail started
[2016-12-27 16:30:04.049] [INFO] audit - audit trail started
[2016-12-27 17:35:51.244] [INFO] audit - audit trail started
[2016-12-27 17:37:03.787] [INFO] audit - audit trail started
[2016-12-27 17:38:19.293] [INFO] audit - audit trail started
[2016-12-27 17:39:31.248] [INFO] audit - audit trail started
[2016-12-27 17:40:09.732] [INFO] audit - audit trail started
[2016-12-27 17:43:37.669] [INFO] audit - audit trail started
[2016-12-27 17:45:52.799] [INFO] audit - audit trail started
[2016-12-27 17:46:57.072] [INFO] audit - audit trail started
[2016-12-27 17:48:43.698] [INFO] audit - audit trail started
[2016-12-27 17:49:36.637] [INFO] audit - audit trail started
[2016-12-27 17:59:29.713] [INFO] audit - audit trail started
[2016-12-27 18:00:37.894] [INFO] audit - audit trail started
[2016-12-27 18:01:13.994] [INFO] audit - audit trail started
[2016-12-27 18:02:12.407] [INFO] audit - audit trail started
[2016-12-27 18:03:11.125] [INFO] audit - audit trail started
[2016-12-27 18:04:11.466] [INFO] audit - audit trail started
[2016-12-27 18:08:44.290] [INFO] audit - audit trail started
[2016-12-27 18:09:25.460] [INFO] audit - audit trail started
[2016-12-27 18:10:34.289] [INFO] audit - audit trail started
[2016-12-27 18:12:50.846] [INFO] audit - audit trail started
[2016-12-27 19:16:25.179] [INFO] audit - audit trail started
[2016-12-27 19:24:13.288] [INFO] audit - audit trail started
[2016-12-27 19:24:37.779] [INFO] audit - audit trail started
[2016-12-27 19:27:11.721] [INFO] audit - audit trail started
[2016-12-28 11:31:57.792] [INFO] audit - audit trail started
[2016-12-28 11:32:51.921] [INFO] audit - audit trail started
[2016-12-28 11:41:07.086] [INFO] audit - audit trail started
[2016-12-28 12:02:28.678] [INFO] audit - audit trail started
[2016-12-28 12:03:15.810] [INFO] audit - audit trail started
[2016-12-28 12:03:53.232] [INFO] audit - audit trail started
[2016-12-28 12:05:54.213] [INFO] audit - audit trail started
[2016-12-28 12:06:44.692] [INFO] audit - audit trail started
[2016-12-28 12:09:06.777] [INFO] audit - audit trail started
[2016-12-28 12:10:32.022] [INFO] audit - audit trail started
[2016-12-28 12:11:56.693] [INFO] audit - audit trail started
[2016-12-28 12:22:59.847] [INFO] audit - audit trail started
[2016-12-28 12:25:48.015] [INFO] audit - audit trail started
[2016-12-28 12:28:45.342] [INFO] audit - audit trail started
[2016-12-28 12:28:56.605] [INFO] audit - audit trail started
[2016-12-28 12:30:49.988] [INFO] audit - audit trail started
[2016-12-28 12:32:00.128] [INFO] audit - audit trail started
[2016-12-28 12:39:43.346] [INFO] audit - audit trail started
[2016-12-28 12:39:51.490] [INFO] audit - audit trail started
[2016-12-28 12:41:02.488] [INFO] audit - audit trail started
[2016-12-28 12:41:51.255] [INFO] audit - audit trail started
[2016-12-28 12:45:23.739] [INFO] audit - audit trail started
[2016-12-28 12:48:30.368] [INFO] audit - audit trail started
[2016-12-28 12:53:23.586] [INFO] audit - audit trail started
[2016-12-28 12:54:07.863] [INFO] audit - audit trail started
[2016-12-28 12:54:29.416] [INFO] audit - audit trail started
[2016-12-28 12:55:15.827] [INFO] audit - audit trail started
[2016-12-28 12:57:22.388] [INFO] audit - audit trail started
[2016-12-28 12:59:54.793] [INFO] audit - audit trail started
[2016-12-28 13:06:12.922] [INFO] audit - audit trail started
[2016-12-28 13:09:26.226] [INFO] audit - audit trail started
[2016-12-28 13:10:17.120] [INFO] audit - audit trail started
[2016-12-28 13:13:08.645] [INFO] audit - audit trail started
[2016-12-28 13:13:59.361] [INFO] audit - audit trail started
[2016-12-28 13:14:25.790] [INFO] audit - audit trail started
[2016-12-28 13:15:47.473] [INFO] audit - audit trail started
[2016-12-28 13:17:20.427] [INFO] audit - audit trail started
[2016-12-28 13:20:04.917] [INFO] audit - audit trail started
[2016-12-28 13:21:34.773] [INFO] audit - audit trail started
[2016-12-28 13:25:39.111] [INFO] audit - audit trail started
[2016-12-28 13:34:38.069] [INFO] audit - audit trail started
[2016-12-28 13:36:50.954] [INFO] audit - audit trail started
[2016-12-28 13:38:09.063] [INFO] audit - audit trail started
[2016-12-28 13:41:00.856] [INFO] audit - audit trail started
[2016-12-28 13:44:27.490] [INFO] audit - audit trail started
[2016-12-28 13:47:35.850] [INFO] audit - audit trail started
[2016-12-28 13:47:49.265] [INFO] audit - audit trail started
[2016-12-28 13:50:29.139] [INFO] audit - audit trail started
[2016-12-28 13:58:41.166] [INFO] audit - audit trail started
[2016-12-28 14:00:47.853] [INFO] audit - audit trail started
[2016-12-28 14:03:57.877] [INFO] audit - audit trail started
[2016-12-28 14:12:29.877] [INFO] audit - audit trail started
[2016-12-28 14:13:00.930] [INFO] audit - audit trail started
[2016-12-28 15:39:23.345] [INFO] audit - audit trail started
[2016-12-28 15:41:42.268] [INFO] audit - audit trail started
[2016-12-28 15:42:19.813] [INFO] audit - audit trail started
[2016-12-28 15:44:47.962] [INFO] audit - audit trail started
[2016-12-28 15:49:06.261] [INFO] audit - audit trail started
[2016-12-28 15:50:30.633] [INFO] audit - audit trail started
[2016-12-28 15:52:18.654] [INFO] audit - audit trail started
[2016-12-28 15:53:28.285] [INFO] audit - audit trail started
[2016-12-28 15:57:07.635] [INFO] audit - audit trail started
[2016-12-28 16:12:09.913] [INFO] audit - audit trail started
[2016-12-28 16:15:52.179] [INFO] audit - audit trail started
[2016-12-28 16:16:25.654] [INFO] audit - audit trail started
[2016-12-28 16:19:38.047] [INFO] audit - audit trail started
[2016-12-28 16:23:05.569] [INFO] audit - audit trail started
[2016-12-28 16:34:21.211] [INFO] audit - audit trail started
[2016-12-28 16:39:11.975] [INFO] audit - audit trail started
[2016-12-28 16:41:00.656] [INFO] audit - audit trail started
[2016-12-28 16:45:25.777] [INFO] audit - audit trail started
[2016-12-28 16:51:53.507] [INFO] audit - audit trail started
[2016-12-28 16:56:44.199] [INFO] audit - audit trail started
[2016-12-28 17:04:51.615] [INFO] audit - audit trail started
[2016-12-28 17:06:05.923] [INFO] audit - audit trail started
[2016-12-28 17:20:05.065] [INFO] audit - audit trail started
[2016-12-28 17:31:40.748] [INFO] audit - audit trail started
[2016-12-28 17:32:24.542] [INFO] audit - audit trail started
[2016-12-28 17:39:06.584] [INFO] audit - audit trail started
[2016-12-28 17:39:53.559] [INFO] audit - audit trail started
[2016-12-28 17:40:32.654] [INFO] audit - audit trail started
[2016-12-28 17:46:08.607] [INFO] audit - audit trail started
[2016-12-28 17:47:06.072] [INFO] audit - audit trail started
[2016-12-28 17:47:46.154] [INFO] audit - audit trail started
[2016-12-28 17:57:02.553] [INFO] audit - audit trail started
[2016-12-28 17:57:32.475] [INFO] audit - audit trail started
[2016-12-28 18:02:23.537] [INFO] audit - audit trail started
[2016-12-28 18:03:55.915] [INFO] audit - audit trail started
[2016-12-28 18:04:22.633] [INFO] audit - audit trail started
[2016-12-28 18:06:22.829] [INFO] audit - audit trail started
[2016-12-28 18:45:43.920] [INFO] audit - audit trail started
[2016-12-28 18:52:41.703] [INFO] audit - audit trail started
[2016-12-28 19:05:31.159] [INFO] audit - audit trail started
[2016-12-28 19:07:11.646] [INFO] audit - audit trail started
[2016-12-28 19:07:31.072] [INFO] audit - audit trail started
[2016-12-29 10:20:41.528] [INFO] audit - audit trail started
[2016-12-29 11:00:49.790] [INFO] audit - audit trail started
[2016-12-29 11:22:37.008] [INFO] audit - audit trail started
[2016-12-29 11:23:14.828] [INFO] audit - audit trail started
[2016-12-29 11:23:56.429] [INFO] audit - audit trail started
[2016-12-29 11:28:11.306] [INFO] audit - audit trail started
[2016-12-29 11:35:40.674] [INFO] audit - audit trail started
[2016-12-29 11:36:15.385] [INFO] audit - audit trail started
[2016-12-29 11:36:50.830] [INFO] audit - audit trail started
[2016-12-29 11:37:18.642] [INFO] audit - audit trail started
[2016-12-29 11:37:53.322] [INFO] audit - audit trail started
[2016-12-29 11:40:24.564] [INFO] audit - audit trail started
[2016-12-29 11:42:22.513] [INFO] audit - audit trail started
[2016-12-29 11:46:27.238] [INFO] audit - audit trail started
[2016-12-29 12:04:10.964] [INFO] audit - audit trail started
[2016-12-29 12:09:11.048] [INFO] audit - audit trail started
[2016-12-29 12:17:50.199] [INFO] audit - audit trail started
[2016-12-29 12:40:00.645] [INFO] audit - audit trail started
[2016-12-29 12:50:16.361] [INFO] audit - audit trail started
[2016-12-29 12:54:36.498] [INFO] audit - audit trail started
[2016-12-29 13:22:25.325] [INFO] audit - audit trail started
[2016-12-29 14:20:33.953] [INFO] audit - audit trail started
[2016-12-29 14:57:14.186] [INFO] audit - audit trail started
[2016-12-29 15:04:23.053] [INFO] audit - audit trail started
[2016-12-29 15:08:33.761] [INFO] audit - audit trail started
[2016-12-29 15:20:08.271] [INFO] audit - audit trail started
[2016-12-29 15:27:49.120] [INFO] audit - audit trail started
[2016-12-29 15:28:21.143] [INFO] audit - audit trail started
[2016-12-29 17:26:08.265] [INFO] audit - audit trail started
[2016-12-29 18:09:09.693] [INFO] audit - audit trail started
[2016-12-29 19:08:27.202] [INFO] audit - audit trail started
[2016-12-29 19:09:30.246] [INFO] audit - audit trail started
[2016-12-29 19:11:09.689] [INFO] audit - audit trail started
[2016-12-30 10:05:08.935] [INFO] audit - audit trail started
[2016-12-30 10:22:20.216] [INFO] audit - audit trail started
[2016-12-30 10:22:46.340] [INFO] audit - audit trail started
[2016-12-30 10:24:48.324] [INFO] audit - audit trail started
[2016-12-30 10:33:44.863] [INFO] audit - audit trail started
[2016-12-30 10:36:34.992] [INFO] audit - audit trail started
[2016-12-30 10:43:29.034] [INFO] audit - audit trail started
[2016-12-30 10:44:14.869] [INFO] audit - audit trail started
[2016-12-30 10:44:45.648] [INFO] audit - audit trail started
[2016-12-30 10:53:31.850] [INFO] audit - audit trail started
[2016-12-30 10:55:12.056] [INFO] audit - audit trail started
[2016-12-30 11:10:23.727] [INFO] audit - audit trail started
[2016-12-30 11:14:41.657] [INFO] audit - audit trail started
[2016-12-30 11:29:58.341] [INFO] audit - audit trail started
[2016-12-30 11:46:55.462] [INFO] audit - audit trail started
[2016-12-30 11:57:43.554] [INFO] audit - audit trail started
[2016-12-30 12:16:43.002] [INFO] audit - audit trail started
[2016-12-30 12:20:24.321] [INFO] audit - audit trail started
[2016-12-30 12:32:13.174] [INFO] audit - audit trail started
[2016-12-30 12:40:25.239] [INFO] audit - audit trail started
[2016-12-30 12:42:58.028] [INFO] audit - audit trail started
[2016-12-30 12:46:38.278] [INFO] audit - audit trail started
[2016-12-30 12:50:01.596] [INFO] audit - audit trail started
[2016-12-30 12:51:25.734] [INFO] audit - audit trail started
[2016-12-30 12:52:58.408] [INFO] audit - audit trail started
[2016-12-30 12:57:07.370] [INFO] audit - audit trail started
[2016-12-30 12:59:49.585] [INFO] audit - audit trail started
[2016-12-30 13:01:06.363] [INFO] audit - audit trail started
[2016-12-30 13:05:51.143] [INFO] audit - audit trail started
[2016-12-30 13:10:39.281] [INFO] audit - audit trail started
[2016-12-30 13:11:42.460] [INFO] audit - audit trail started
[2016-12-30 13:18:57.789] [INFO] audit - audit trail started
[2016-12-30 13:21:48.469] [INFO] audit - audit trail started
[2016-12-30 13:23:18.486] [INFO] audit - audit trail started
[2016-12-30 13:24:08.356] [INFO] audit - audit trail started
[2016-12-30 13:26:11.379] [INFO] audit - audit trail started
[2016-12-30 13:27:18.160] [INFO] audit - audit trail started
[2016-12-30 13:27:54.286] [INFO] audit - audit trail started
[2016-12-30 13:28:10.599] [INFO] audit - audit trail started
[2016-12-30 13:28:45.025] [INFO] audit - audit trail started
[2016-12-30 13:30:04.560] [INFO] audit - audit trail started
[2016-12-30 13:30:53.143] [INFO] audit - audit trail started
[2016-12-30 13:31:07.911] [INFO] audit - audit trail started
[2016-12-30 13:31:31.694] [INFO] audit - audit trail started
[2016-12-30 13:38:58.773] [INFO] audit - audit trail started
[2016-12-30 13:39:46.197] [INFO] audit - audit trail started
[2016-12-30 14:35:18.066] [INFO] audit - audit trail started
[2016-12-30 14:39:53.263] [INFO] audit - audit trail started
[2016-12-30 14:42:54.508] [INFO] audit - audit trail started
[2016-12-30 14:44:52.690] [INFO] audit - audit trail started
[2016-12-30 14:47:00.312] [INFO] audit - audit trail started
[2016-12-30 14:48:23.704] [INFO] audit - audit trail started
[2016-12-30 14:52:43.083] [INFO] audit - audit trail started
[2016-12-30 14:55:59.675] [INFO] audit - audit trail started
[2016-12-30 14:58:17.254] [INFO] audit - audit trail started
[2016-12-30 14:59:14.049] [INFO] audit - audit trail started
[2016-12-30 15:02:09.644] [INFO] audit - audit trail started
[2016-12-30 15:07:51.630] [INFO] audit - audit trail started
[2016-12-30 15:09:39.898] [INFO] audit - audit trail started
[2016-12-30 15:10:32.861] [INFO] audit - audit trail started
[2016-12-30 15:14:15.962] [INFO] audit - audit trail started
[2016-12-30 15:33:09.735] [INFO] audit - audit trail started
[2016-12-30 15:37:15.091] [INFO] audit - audit trail started
[2016-12-30 15:53:18.367] [INFO] audit - audit trail started
[2016-12-30 15:53:42.618] [INFO] audit - audit trail started
[2016-12-30 15:54:46.479] [INFO] audit - audit trail started
[2016-12-30 15:56:29.651] [INFO] audit - audit trail started
[2016-12-30 15:56:35.113] [INFO] audit - audit trail started
[2016-12-30 15:57:34.153] [INFO] audit - audit trail started
[2016-12-30 16:01:03.479] [INFO] audit - audit trail started
[2016-12-30 16:04:16.731] [INFO] audit - audit trail started
[2016-12-30 16:04:35.370] [INFO] audit - audit trail started
[2016-12-30 16:06:57.194] [INFO] audit - audit trail started
[2016-12-30 16:15:17.779] [INFO] audit - audit trail started
[2016-12-30 16:16:01.196] [INFO] audit - audit trail started
[2016-12-30 16:16:40.721] [INFO] audit - audit trail started
[2016-12-30 16:17:42.728] [INFO] audit - audit trail started
[2016-12-30 16:24:29.132] [INFO] audit - audit trail started
[2016-12-30 16:25:33.408] [INFO] audit - audit trail started
[2016-12-30 16:26:50.609] [INFO] audit - audit trail started
[2016-12-30 16:27:57.557] [INFO] audit - audit trail started
[2016-12-30 16:36:34.369] [INFO] audit - audit trail started
[2016-12-30 16:37:27.013] [INFO] audit - audit trail started
[2016-12-30 16:38:18.391] [INFO] audit - audit trail started
[2016-12-30 16:39:13.451] [INFO] audit - audit trail started
[2016-12-30 16:40:14.071] [INFO] audit - audit trail started
[2016-12-30 16:43:01.485] [INFO] audit - audit trail started
[2016-12-30 16:49:46.701] [INFO] audit - audit trail started
[2016-12-30 16:51:23.509] [INFO] audit - audit trail started
[2016-12-30 17:23:11.737] [INFO] audit - audit trail started
[2016-12-30 17:25:56.974] [INFO] audit - audit trail started
[2016-12-30 17:27:55.075] [INFO] audit - audit trail started
[2016-12-30 17:28:50.241] [INFO] audit - audit trail started
[2016-12-30 17:29:25.595] [INFO] audit - audit trail started
[2016-12-30 17:30:13.238] [INFO] audit - audit trail started
[2016-12-30 17:36:33.826] [INFO] audit - audit trail started
[2016-12-30 17:38:09.061] [INFO] audit - audit trail started
[2016-12-30 17:39:01.062] [INFO] audit - audit trail started
[2016-12-30 17:39:55.565] [INFO] audit - audit trail started
[2016-12-30 17:41:51.335] [INFO] audit - audit trail started
[2016-12-30 17:44:00.570] [INFO] audit - audit trail started
[2016-12-30 17:45:46.826] [INFO] audit - audit trail started
[2016-12-30 17:46:19.255] [INFO] audit - audit trail started
[2016-12-30 17:47:06.272] [INFO] audit - audit trail started
[2016-12-30 17:48:24.404] [INFO] audit - audit trail started
[2016-12-30 17:49:13.748] [INFO] audit - audit trail started
[2016-12-30 17:54:58.676] [INFO] audit - audit trail started
[2016-12-30 17:55:41.850] [INFO] audit - audit trail started
[2016-12-30 17:56:41.023] [INFO] audit - audit trail started
[2016-12-30 17:57:25.748] [INFO] audit - audit trail started
[2016-12-30 17:58:00.131] [INFO] audit - audit trail started
[2016-12-30 18:07:29.294] [INFO] audit - audit trail started
[2016-12-30 18:08:13.962] [INFO] audit - audit trail started
[2016-12-30 18:11:07.490] [INFO] audit - audit trail started
[2016-12-30 18:30:27.565] [INFO] audit - audit trail started
