[2017-01-07 11:49:31.408] [INFO] server - Route Sub System: MASTER
Method: GET
URL:/master/get/invoice/details/by/user_id/praveen@annectos.in
[2017-01-07 11:51:24.344] [INFO] server - Route Sub System: MASTER
Method: POST
URL:/master/sku/list/all
[2017-01-07 11:51:27.530] [INFO] server - Route Sub System: MASTER
Method: POST
URL:/master/sku/list/all
[2017-01-07 11:51:27.704] [INFO] server - Route Sub System: MASTER
Method: GET
URL:/master/retailer/list
[2017-01-07 11:51:27.711] [INFO] server - Route Sub System: MASTER
Method: GET
URL:/master/invoice/detail/by/id/schneider-ryvg_-CSg
[2017-01-07 11:51:27.719] [INFO] server - Route Sub System: MASTER
Method: GET
URL:/master/get/invoice/details/by/user_id/praveen@annectos.in
[2017-01-07 11:53:11.558] [INFO] server - express loaded
[2017-01-07 11:53:11.586] [INFO] server - all routes are loaded
[2017-01-07 11:53:11.588] [INFO] server - http server started
[2017-01-07 11:53:11.589] [INFO] server - Listening to port 3000
[2017-01-07 11:53:13.946] [INFO] server - Route Sub System: MASTER
Method: POST
URL:/master/search/by/part/code
[2017-01-07 11:53:31.089] [INFO] server - Route Sub System: MASTER
Method: POST
URL:/master/search/by/part/code
[2017-01-07 11:54:56.302] [INFO] server - express loaded
[2017-01-07 11:54:56.331] [INFO] server - all routes are loaded
[2017-01-07 11:54:56.335] [INFO] server - http server started
[2017-01-07 11:54:56.335] [INFO] server - Listening to port 3000
[2017-01-07 11:55:06.197] [INFO] server - Route Sub System: MASTER
Method: POST
URL:/master/sku/list/all
[2017-01-07 11:55:06.273] [INFO] server - Route Sub System: MASTER
Method: POST
URL:/master/sku/list/all
[2017-01-07 11:55:06.277] [INFO] server - Route Sub System: MASTER
Method: GET
URL:/master/retailer/list
[2017-01-07 11:55:06.284] [INFO] server - Route Sub System: MASTER
Method: GET
URL:/master/invoice/detail/by/id/schneider-ryvg_-CSg
[2017-01-07 11:55:06.580] [INFO] server - Route Sub System: MASTER
Method: GET
URL:/master/get/invoice/details/by/user_id/praveen@annectos.in
[2017-01-07 11:55:10.878] [INFO] server - Route Sub System: MASTER
Method: GET
URL:/master/search/invoice/by/pending/undefined
[2017-01-07 11:55:16.564] [INFO] server - Route Sub System: MASTER
Method: GET
URL:/master/search/invoice/by/pending/undefined
[2017-01-07 11:55:27.659] [INFO] server - Route Sub System: MASTER
Method: GET
URL:/master/retailer/list
[2017-01-07 11:55:27.667] [INFO] server - Route Sub System: MASTER
Method: GET
URL:/master/invoice/detail/by/id/schneider-ryvg_-CSg
[2017-01-07 11:55:27.674] [INFO] server - Route Sub System: MASTER
Method: GET
URL:/master/get/invoice/details/by/user_id/praveen@annectos.in
[2017-01-07 11:55:44.168] [INFO] server - Route Sub System: MASTER
Method: POST
URL:/master/search/by/part/code
[2017-01-07 11:55:56.938] [INFO] server - Route Sub System: MASTER
Method: POST
URL:/master/search/by/part/code
[2017-01-07 11:56:16.249] [INFO] server - Route Sub System: MASTER
Method: POST
URL:/master/invoice/claim/details/update
[2017-01-07 11:57:57.902] [INFO] server - express loaded
[2017-01-07 11:57:57.952] [INFO] server - all routes are loaded
[2017-01-07 11:57:57.955] [INFO] server - http server started
[2017-01-07 11:57:57.956] [INFO] server - Listening to port 3000
[2017-01-07 12:00:17.180] [INFO] server - Route Sub System: MASTER
Method: GET
URL:/master/search/invoice/by/pending/undefined
[2017-01-07 12:00:22.346] [INFO] server - Route Sub System: MASTER
Method: GET
URL:/master/search/invoice/by/pending/undefined
[2017-01-07 12:00:33.490] [INFO] server - Route Sub System: MASTER
Method: GET
URL:/master/retailer/list
[2017-01-07 12:00:33.665] [INFO] server - Route Sub System: MASTER
Method: GET
URL:/master/invoice/detail/by/id/schneider-ryvg_-CSg
[2017-01-07 12:00:33.792] [INFO] server - Route Sub System: MASTER
Method: GET
URL:/master/get/invoice/details/by/user_id/praveen@annectos.in
[2017-01-07 12:00:46.896] [INFO] server - Route Sub System: MASTER
Method: POST
URL:/master/search/by/part/code
[2017-01-07 12:01:00.763] [INFO] server - Route Sub System: MASTER
Method: POST
URL:/master/search/by/part/code
[2017-01-07 12:01:24.906] [INFO] server - Route Sub System: MASTER
Method: POST
URL:/master/invoice/claim/details/update
[2017-01-07 12:04:42.610] [INFO] server - express loaded
[2017-01-07 12:04:42.651] [INFO] server - all routes are loaded
[2017-01-07 12:04:42.654] [INFO] server - http server started
[2017-01-07 12:04:42.654] [INFO] server - Listening to port 3000
[2017-01-07 12:04:51.293] [INFO] server - Route Sub System: MASTER
Method: GET
URL:/master/search/invoice/by/pending/undefined
[2017-01-07 12:04:56.267] [INFO] server - Route Sub System: MASTER
Method: GET
URL:/master/search/invoice/by/pending/undefined
[2017-01-07 12:05:30.481] [INFO] server - Route Sub System: MASTER
Method: POST
URL:/master/sku/list/all
[2017-01-07 12:05:30.487] [INFO] server - Route Sub System: MASTER
Method: POST
URL:/master/sku/list/all
[2017-01-07 12:05:30.490] [INFO] server - Route Sub System: MASTER
Method: GET
URL:/master/search/invoice/by/pending/undefined
[2017-01-07 12:05:35.753] [INFO] server - Route Sub System: MASTER
Method: GET
URL:/master/search/invoice/by/pending/undefined
[2017-01-07 12:05:40.090] [INFO] server - Route Sub System: MASTER
Method: POST
URL:/master/sku/list/all
[2017-01-07 12:05:40.092] [INFO] server - Route Sub System: MASTER
Method: POST
URL:/master/sku/list/all
[2017-01-07 12:05:40.096] [INFO] server - Route Sub System: MASTER
Method: GET
URL:/master/search/invoice/by/pending/undefined
[2017-01-07 12:05:45.823] [INFO] server - Route Sub System: MASTER
Method: GET
URL:/master/search/invoice/by/pending/undefined
[2017-01-07 12:05:57.760] [INFO] server - Route Sub System: MASTER
Method: GET
URL:/master/retailer/list
[2017-01-07 12:05:57.912] [INFO] server - Route Sub System: MASTER
Method: GET
URL:/master/invoice/detail/by/id/schneider-ryvg_-CSg
[2017-01-07 12:05:57.916] [INFO] server - Route Sub System: MASTER
Method: GET
URL:/master/get/invoice/details/by/user_id/praveen@annectos.in
[2017-01-07 12:06:16.050] [INFO] server - Route Sub System: MASTER
Method: POST
URL:/master/search/by/part/code
[2017-01-07 12:06:22.174] [INFO] server - Route Sub System: MASTER
Method: POST
URL:/master/search/by/part/code
[2017-01-07 12:06:38.407] [INFO] server - Route Sub System: MASTER
Method: POST
URL:/master/search/by/part/code
[2017-01-07 12:06:51.566] [INFO] server - Route Sub System: MASTER
Method: POST
URL:/master/search/by/part/code
[2017-01-07 12:07:13.432] [INFO] server - Route Sub System: MASTER
Method: POST
URL:/master/invoice/claim/details/update
[2017-01-07 12:07:38.807] [INFO] server - express loaded
[2017-01-07 12:07:38.850] [INFO] server - all routes are loaded
[2017-01-07 12:07:38.853] [INFO] server - http server started
[2017-01-07 12:07:38.853] [INFO] server - Listening to port 3000
[2017-01-07 12:07:54.200] [INFO] server - Route Sub System: MASTER
Method: GET
URL:/master/search/invoice/by/pending/undefined
[2017-01-07 12:07:59.288] [INFO] server - Route Sub System: MASTER
Method: GET
URL:/master/search/invoice/by/pending/undefined
[2017-01-07 12:08:02.623] [INFO] server - express loaded
[2017-01-07 12:08:02.665] [INFO] server - all routes are loaded
[2017-01-07 12:08:02.668] [INFO] server - http server started
[2017-01-07 12:08:02.668] [INFO] server - Listening to port 3000
[2017-01-07 12:09:04.687] [INFO] server - Route Sub System: MASTER
Method: GET
URL:/master/retailer/list
[2017-01-07 12:09:04.694] [INFO] server - Route Sub System: MASTER
Method: GET
URL:/master/invoice/detail/by/id/schneider-ryvg_-CSg
[2017-01-07 12:09:04.698] [INFO] server - Route Sub System: MASTER
Method: GET
URL:/master/get/invoice/details/by/user_id/praveen@annectos.in
[2017-01-07 12:09:22.971] [INFO] server - Route Sub System: MASTER
Method: POST
URL:/master/search/by/part/code
[2017-01-07 12:09:47.374] [INFO] server - Route Sub System: MASTER
Method: POST
URL:/master/search/by/part/code
[2017-01-07 12:10:12.105] [INFO] server - Route Sub System: MASTER
Method: POST
URL:/master/invoice/claim/details/update
[2017-01-07 12:12:31.939] [INFO] server - Route Sub System: MASTER
Method: POST
URL:/master/sku/list/all
[2017-01-07 12:12:32.005] [INFO] server - Route Sub System: MASTER
Method: POST
URL:/master/sku/list/all
[2017-01-07 12:12:32.009] [INFO] server - Route Sub System: MASTER
Method: GET
URL:/master/retailer/list
[2017-01-07 12:12:32.015] [INFO] server - Route Sub System: MASTER
Method: GET
URL:/master/invoice/detail/by/id/schneider-ryvg_-CSg
[2017-01-07 12:12:32.143] [INFO] server - Route Sub System: MASTER
Method: GET
URL:/master/get/invoice/details/by/user_id/praveen@annectos.in
[2017-01-07 12:12:36.500] [INFO] server - Route Sub System: MASTER
Method: GET
URL:/master/search/invoice/by/pending/undefined
[2017-01-07 12:12:42.616] [INFO] server - Route Sub System: MASTER
Method: GET
URL:/master/search/invoice/by/pending/undefined
[2017-01-07 12:13:10.249] [INFO] server - Route Sub System: MASTER
Method: POST
URL:/master/sku/list/all
[2017-01-07 12:13:10.253] [INFO] server - Route Sub System: MASTER
Method: POST
URL:/master/sku/list/all
[2017-01-07 12:13:10.255] [INFO] server - Route Sub System: MASTER
Method: GET
URL:/master/search/invoice/by/pending/undefined
[2017-01-07 12:13:14.045] [INFO] server - Route Sub System: MASTER
Method: GET
URL:/master/search/invoice/by/pending/undefined
[2017-01-07 12:13:27.323] [INFO] server - Route Sub System: MASTER
Method: GET
URL:/master/retailer/list
[2017-01-07 12:13:27.329] [INFO] server - Route Sub System: MASTER
Method: GET
URL:/master/invoice/detail/by/id/schneider-ryvg_-CSg
[2017-01-07 12:13:27.335] [INFO] server - Route Sub System: MASTER
Method: GET
URL:/master/get/invoice/details/by/user_id/praveen@annectos.in
[2017-01-07 12:13:39.615] [INFO] server - Route Sub System: MASTER
Method: POST
URL:/master/search/by/part/code
[2017-01-07 12:13:54.749] [INFO] server - Route Sub System: MASTER
Method: POST
URL:/master/search/by/part/code
[2017-01-07 12:18:11.753] [INFO] server - express loaded
[2017-01-07 12:18:11.792] [INFO] server - all routes are loaded
[2017-01-07 12:18:11.795] [INFO] server - http server started
[2017-01-07 12:18:11.795] [INFO] server - Listening to port 3000
[2017-01-07 12:18:14.836] [INFO] server - Route Sub System: MASTER
Method: POST
URL:/master/invoice/claim/details/update
[2017-01-07 12:19:30.681] [INFO] server - express loaded
[2017-01-07 12:19:30.727] [INFO] server - all routes are loaded
[2017-01-07 12:19:30.730] [INFO] server - http server started
[2017-01-07 12:19:30.730] [INFO] server - Listening to port 3000
[2017-01-07 12:19:32.488] [INFO] server - Route Sub System: MASTER
Method: GET
URL:/master/search/invoice/by/pending/undefined
[2017-01-07 12:19:36.821] [INFO] server - Route Sub System: MASTER
Method: GET
URL:/master/retailer/list
[2017-01-07 12:19:36.830] [INFO] server - Route Sub System: MASTER
Method: GET
URL:/master/invoice/detail/by/id/schneider-ryvg_-CSg
[2017-01-07 12:19:36.836] [INFO] server - Route Sub System: MASTER
Method: GET
URL:/master/get/invoice/details/by/user_id/praveen@annectos.in
[2017-01-07 12:19:37.998] [INFO] server - Route Sub System: MASTER
Method: GET
URL:/master/search/invoice/by/pending/undefined
[2017-01-07 12:20:00.674] [INFO] server - Route Sub System: MASTER
Method: POST
URL:/master/invoice/claim/details/update
[2017-01-07 12:20:30.409] [INFO] server - express loaded
[2017-01-07 12:20:30.445] [INFO] server - all routes are loaded
[2017-01-07 12:20:30.448] [INFO] server - http server started
[2017-01-07 12:20:30.448] [INFO] server - Listening to port 3000
[2017-01-07 12:20:39.194] [INFO] server - Route Sub System: MASTER
Method: POST
URL:/master/invoice/claim/details/update
[2017-01-07 12:21:06.708] [INFO] server - express loaded
[2017-01-07 12:21:06.748] [INFO] server - all routes are loaded
[2017-01-07 12:21:06.751] [INFO] server - http server started
[2017-01-07 12:21:06.751] [INFO] server - Listening to port 3000
[2017-01-07 12:21:16.385] [INFO] server - Route Sub System: MASTER
Method: POST
URL:/master/invoice/claim/details/update
[2017-01-07 12:21:51.938] [INFO] server - express loaded
[2017-01-07 12:21:51.983] [INFO] server - all routes are loaded
[2017-01-07 12:21:51.986] [INFO] server - http server started
[2017-01-07 12:21:51.987] [INFO] server - Listening to port 3000
[2017-01-07 12:22:01.548] [INFO] server - Route Sub System: MASTER
Method: POST
URL:/master/invoice/claim/details/update
[2017-01-07 12:26:38.534] [INFO] server - Route Sub System: LOGIN
Method: POST
URL:/login/by
[2017-01-07 12:26:40.285] [INFO] server - Route Sub System: MASTER
Method: POST
URL:/master/sku/list/all
[2017-01-07 12:26:40.288] [INFO] server - Route Sub System: MASTER
Method: GET
URL:/master/program/get/lostpoint/praveen@annectos.in
[2017-01-07 12:26:40.300] [INFO] server - Route Sub System: MASTER
Method: GET
URL:/master/program/get/points_pending_for_paymt_appv/praveen@annectos.in
[2017-01-07 12:26:40.511] [INFO] server - Route Sub System: MASTER
Method: GET
URL:/master/get/user_id_wise_invoice_amount/praveen@annectos.in
[2017-01-07 12:26:40.517] [INFO] server - Route Sub System: MASTER
Method: GET
URL:/master/details/totalsale/by/user/praveen@annectos.in
[2017-01-07 12:26:40.524] [INFO] server - Route Sub System: MASTER
Method: GET
URL:/master/top/si
[2017-01-07 12:26:40.529] [INFO] server - Route Sub System: MASTER
Method: GET
URL:/master/details/goal/value/of/user/praveen@annectos.in
[2017-01-07 12:26:41.640] [INFO] server - Route Sub System: MASTER
Method: GET
URL:/master/invoice/month/proceedings/of/user/praveen@annectos.in/Thu%20Dec%2008%202016%2012:26:40%20GMT+0530%20(India%20Standard%20Time)
[2017-01-07 12:26:47.033] [INFO] server - Route Sub System: MASTER
Method: GET
URL:/master/si/by/allIndia/dashboard
[2017-01-07 12:26:47.418] [INFO] server - Route Sub System: MASTER
Method: GET
URL:/master/distributor/list/
[2017-01-07 12:26:58.557] [INFO] server - Route Sub System: MASTER
Method: POST
URL:/master/aws/upload/file
[2017-01-07 12:27:25.510] [INFO] server - Route Sub System: MASTER
Method: POST
URL:/master/sku/list/all
[2017-01-07 12:27:25.513] [INFO] server - Route Sub System: MASTER
Method: POST
URL:/master/sku/list/all
[2017-01-07 12:27:25.524] [INFO] server - Route Sub System: MASTER
Method: GET
URL:/master/distributor/list/
[2017-01-07 12:27:40.193] [INFO] server - Route Sub System: MASTER
Method: POST
URL:/master/aws/upload/file
[2017-01-07 12:27:46.114] [INFO] server - Route Sub System: MASTER
Method: POST
URL:/master/invoice/schneider/add
[2017-01-07 12:27:46.115] [INFO] server - Invoice Add Call In Index.js
[2017-01-07 12:29:05.375] [INFO] server - express loaded
[2017-01-07 12:29:05.425] [INFO] server - all routes are loaded
[2017-01-07 12:29:05.429] [INFO] server - http server started
[2017-01-07 12:29:05.429] [INFO] server - Listening to port 3000
[2017-01-07 12:29:41.375] [INFO] server - express loaded
[2017-01-07 12:29:41.441] [INFO] server - all routes are loaded
[2017-01-07 12:29:41.454] [INFO] server - http server started
[2017-01-07 12:29:41.455] [INFO] server - Listening to port 3000
[2017-01-07 12:29:53.020] [INFO] server - Route Sub System: MASTER
Method: POST
URL:/master/aws/upload/file
[2017-01-07 12:29:58.956] [INFO] server - Route Sub System: MASTER
Method: POST
URL:/master/invoice/schneider/add
[2017-01-07 12:29:58.957] [INFO] server - Invoice Add Call In Index.js
[2017-01-07 12:31:06.119] [INFO] server - Route Sub System: LOGIN
Method: POST
URL:/login/by
[2017-01-07 12:31:07.811] [INFO] server - Route Sub System: MASTER
Method: POST
URL:/master/sku/list/all
[2017-01-07 12:31:07.821] [INFO] server - Route Sub System: MASTER
Method: GET
URL:/master/search/invoice/by/pending/undefined
[2017-01-07 12:31:12.867] [INFO] server - Route Sub System: MASTER
Method: GET
URL:/master/search/invoice/by/pending/undefined
[2017-01-07 12:31:28.505] [INFO] server - Route Sub System: MASTER
Method: GET
URL:/master/retailer/list
[2017-01-07 12:31:28.513] [INFO] server - Route Sub System: MASTER
Method: GET
URL:/master/invoice/detail/by/id/schneider-ryvg_-CSg
[2017-01-07 12:31:28.518] [INFO] server - Route Sub System: MASTER
Method: GET
URL:/master/get/invoice/details/by/user_id/praveen@annectos.in
[2017-01-07 12:32:33.313] [INFO] server - Route Sub System: MASTER
Method: POST
URL:/master/invoice/claim/details/update
[2017-01-07 12:33:02.836] [INFO] server - express loaded
[2017-01-07 12:33:02.879] [INFO] server - all routes are loaded
[2017-01-07 12:33:02.883] [INFO] server - http server started
[2017-01-07 12:33:02.883] [INFO] server - Listening to port 3000
[2017-01-07 12:33:14.255] [INFO] server - Route Sub System: MASTER
Method: POST
URL:/master/invoice/claim/details/update
[2017-01-07 12:33:27.088] [INFO] server - Route Sub System: MASTER
Method: GET
URL:/master/search/invoice/by/pending/undefined
[2017-01-07 12:33:32.677] [INFO] server - Route Sub System: MASTER
Method: GET
URL:/master/search/invoice/by/pending/undefined
[2017-01-07 12:33:40.988] [INFO] server - Route Sub System: MASTER
Method: GET
URL:/master/retailer/list
[2017-01-07 12:33:41.156] [INFO] server - Route Sub System: MASTER
Method: GET
URL:/master/invoice/detail/by/id/schneider-HJwezzCrl
[2017-01-07 12:33:41.161] [INFO] server - Route Sub System: MASTER
Method: GET
URL:/master/get/invoice/details/by/user_id/praveen@annectos.in
[2017-01-07 12:33:59.336] [INFO] server - Route Sub System: MASTER
Method: POST
URL:/master/search/by/part/code
[2017-01-07 12:34:11.092] [INFO] server - Route Sub System: MASTER
Method: POST
URL:/master/search/by/part/code
[2017-01-07 12:34:26.209] [INFO] server - Route Sub System: MASTER
Method: POST
URL:/master/search/by/part/code
[2017-01-07 12:34:40.421] [INFO] server - Route Sub System: MASTER
Method: POST
URL:/master/search/by/part/code
[2017-01-07 12:35:14.263] [INFO] server - Route Sub System: MASTER
Method: POST
URL:/master/invoice/claim/details/update
[2017-01-07 12:35:39.754] [INFO] server - Route Sub System: MASTER
Method: POST
URL:/master/invoice/claim/details/update
[2017-01-07 12:37:14.581] [INFO] server - Route Sub System: MASTER
Method: POST
URL:/master/invoice/claim/details/update
[2017-01-07 12:37:40.056] [INFO] server - Route Sub System: MASTER
Method: POST
URL:/master/invoice/claim/details/update
[2017-01-07 12:43:59.018] [INFO] server - Route Sub System: MASTER
Method: GET
URL:/master/search/invoice/by/pending/undefined
[2017-01-07 12:44:04.139] [INFO] server - Route Sub System: MASTER
Method: GET
URL:/master/search/invoice/by/pending/undefined
[2017-01-07 12:44:42.596] [INFO] server - Route Sub System: MASTER
Method: GET
URL:/master/retailer/list
[2017-01-07 12:44:42.761] [INFO] server - Route Sub System: MASTER
Method: GET
URL:/master/invoice/detail/by/id/schneider-HJwezzCrl
[2017-01-07 12:44:42.907] [INFO] server - Route Sub System: MASTER
Method: GET
URL:/master/get/invoice/details/by/user_id/praveen@annectos.in
[2017-01-07 12:44:58.645] [INFO] server - Route Sub System: MASTER
Method: POST
URL:/master/search/by/part/code
[2017-01-07 12:45:05.004] [INFO] server - Route Sub System: MASTER
Method: POST
URL:/master/search/by/part/code
[2017-01-07 12:45:20.105] [INFO] server - Route Sub System: MASTER
Method: POST
URL:/master/search/by/part/code
[2017-01-07 12:45:41.044] [INFO] server - Route Sub System: MASTER
Method: POST
URL:/master/invoice/claim/details/update
[2017-01-07 12:45:59.846] [INFO] server - Route Sub System: MASTER
Method: GET
URL:/master/search/invoice/by/pending/undefined
[2017-01-07 12:46:05.337] [INFO] server - Route Sub System: MASTER
Method: GET
URL:/master/search/invoice/by/pending/undefined
[2017-01-07 12:46:19.128] [INFO] server - Route Sub System: MASTER
Method: GET
URL:/master/retailer/list
[2017-01-07 12:46:19.449] [INFO] server - Route Sub System: MASTER
Method: GET
URL:/master/invoice/detail/by/id/schneider-HyzuWf0Hl
[2017-01-07 12:46:19.453] [INFO] server - Route Sub System: MASTER
Method: GET
URL:/master/get/invoice/details/by/user_id/praveen@annectos.in
[2017-01-07 12:46:29.972] [INFO] server - Route Sub System: MASTER
Method: POST
URL:/master/search/by/part/code
[2017-01-07 12:46:44.622] [INFO] server - Route Sub System: MASTER
Method: POST
URL:/master/search/by/part/code
[2017-01-07 12:46:58.659] [INFO] server - Route Sub System: MASTER
Method: POST
URL:/master/search/by/part/code
