[2016-12-30 17:57:30.134] [INFO] server - Route Sub System: MASTER
Method: POST
URL:/master/insert/user/points
[2016-12-30 17:57:39.895] [INFO] server - Route Sub System: MASTER
Method: POST
URL:/master/insert/disti/points
[2016-12-30 17:57:39.901] [INFO] server - Route Sub System: MASTER
Method: POST
URL:/master/insert/disti/points
[2016-12-30 17:58:01.595] [INFO] server - express loaded
[2016-12-30 17:58:01.645] [INFO] server - all routes are loaded
[2016-12-30 17:58:01.649] [INFO] server - http server started
[2016-12-30 17:58:01.649] [INFO] server - Listening to port 3000
[2016-12-30 18:06:42.082] [INFO] server - Route Sub System: MASTER
Method: POST
URL:/master/insert/user/points
[2016-12-30 18:06:51.252] [INFO] server - Route Sub System: MASTER
Method: POST
URL:/master/insert/disti/points
[2016-12-30 18:06:51.258] [INFO] server - Route Sub System: MASTER
Method: POST
URL:/master/insert/disti/points
[2016-12-30 18:07:31.136] [INFO] server - express loaded
[2016-12-30 18:07:31.186] [INFO] server - all routes are loaded
[2016-12-30 18:07:31.189] [INFO] server - http server started
[2016-12-30 18:07:31.189] [INFO] server - Listening to port 3000
[2016-12-30 18:07:35.820] [INFO] server - Route Sub System: MASTER
Method: POST
URL:/master/insert/user/points
[2016-12-30 18:07:46.347] [INFO] server - Route Sub System: MASTER
Method: POST
URL:/master/insert/disti/points
[2016-12-30 18:07:46.633] [INFO] server - Route Sub System: MASTER
Method: POST
URL:/master/insert/disti/points
[2016-12-30 18:08:15.441] [INFO] server - express loaded
[2016-12-30 18:08:15.485] [INFO] server - all routes are loaded
[2016-12-30 18:08:15.488] [INFO] server - http server started
[2016-12-30 18:08:15.488] [INFO] server - Listening to port 3000
[2016-12-30 18:08:17.984] [INFO] server - Route Sub System: MASTER
Method: POST
URL:/master/insert/user/points
[2016-12-30 18:08:31.404] [INFO] server - Route Sub System: MASTER
Method: POST
URL:/master/insert/disti/points
[2016-12-30 18:08:31.410] [INFO] server - Route Sub System: MASTER
Method: POST
URL:/master/insert/disti/points
[2016-12-30 18:10:02.530] [INFO] server - Route Sub System: MASTER
Method: POST
URL:/master/insert/user/points
[2016-12-30 18:10:10.487] [INFO] server - Route Sub System: MASTER
Method: POST
URL:/master/insert/disti/points
[2016-12-30 18:10:10.774] [INFO] server - Route Sub System: MASTER
Method: POST
URL:/master/insert/disti/points
[2016-12-30 18:10:31.718] [INFO] server - Route Sub System: MASTER
Method: POST
URL:/master/insert/disti/points
[2016-12-30 18:10:31.719] [INFO] server - Route Sub System: MASTER
Method: POST
URL:/master/insert/disti/points
[2016-12-30 18:11:08.958] [INFO] server - express loaded
[2016-12-30 18:11:09.032] [INFO] server - all routes are loaded
[2016-12-30 18:11:09.035] [INFO] server - http server started
[2016-12-30 18:11:09.035] [INFO] server - Listening to port 3000
[2016-12-30 18:11:26.084] [INFO] server - Route Sub System: MASTER
Method: POST
URL:/master/insert/user/points
[2016-12-30 18:11:34.115] [INFO] server - Route Sub System: MASTER
Method: POST
URL:/master/insert/disti/points
[2016-12-30 18:11:34.422] [INFO] server - Route Sub System: MASTER
Method: POST
URL:/master/insert/disti/points
[2016-12-30 18:13:34.423] [INFO] server - Route Sub System: MASTER
Method: POST
URL:/master/insert/disti/points
[2016-12-30 18:30:29.136] [INFO] server - express loaded
[2016-12-30 18:30:29.187] [INFO] server - all routes are loaded
[2016-12-30 18:30:29.190] [INFO] server - http server started
[2016-12-30 18:30:29.190] [INFO] server - Listening to port 3000
[2016-12-30 18:30:38.436] [INFO] server - Route Sub System: MASTER
Method: POST
URL:/master/insert/user/points
[2016-12-30 18:30:47.052] [INFO] server - Route Sub System: MASTER
Method: POST
URL:/master/insert/disti/points
[2016-12-30 18:30:47.319] [INFO] server - Route Sub System: MASTER
Method: POST
URL:/master/insert/disti/points
[2016-12-30 18:32:16.351] [INFO] server - Route Sub System: MASTER
Method: POST
URL:/master/insert/user/points
[2016-12-30 18:32:24.433] [INFO] server - Route Sub System: MASTER
Method: POST
URL:/master/insert/disti/points
[2016-12-30 18:32:24.436] [INFO] server - Route Sub System: MASTER
Method: POST
URL:/master/insert/disti/points
[2016-12-30 18:32:47.359] [INFO] server - Route Sub System: MASTER
Method: POST
URL:/master/insert/disti/points
[2016-12-30 18:34:24.748] [INFO] server - Route Sub System: MASTER
Method: POST
URL:/master/insert/disti/points
[2016-12-30 18:34:24.749] [INFO] server - Route Sub System: MASTER
Method: POST
URL:/master/insert/disti/points
[2016-12-30 18:52:35.739] [INFO] server - express loaded
[2016-12-30 18:52:35.781] [INFO] server - all routes are loaded
[2016-12-30 18:52:35.784] [INFO] server - http server started
[2016-12-30 18:52:35.784] [INFO] server - Listening to port 3000
[2016-12-30 18:52:42.558] [INFO] server - Route Sub System: MASTER
Method: POST
URL:/master/insert/user/points
[2016-12-30 18:53:01.231] [INFO] server - Route Sub System: MASTER
Method: POST
URL:/master/insert/disti/points
[2016-12-30 18:53:01.236] [INFO] server - Route Sub System: MASTER
Method: POST
URL:/master/insert/disti/points
[2016-12-30 18:53:26.722] [INFO] server - express loaded
[2016-12-30 18:53:26.759] [INFO] server - all routes are loaded
[2016-12-30 18:53:26.762] [INFO] server - http server started
[2016-12-30 18:53:26.762] [INFO] server - Listening to port 3000
[2016-12-30 18:53:30.716] [INFO] server - Route Sub System: MASTER
Method: POST
URL:/master/insert/user/points
[2016-12-30 18:53:40.846] [INFO] server - Route Sub System: MASTER
Method: POST
URL:/master/insert/disti/points
[2016-12-30 18:53:41.154] [INFO] server - Route Sub System: MASTER
Method: POST
URL:/master/insert/disti/points
[2016-12-30 18:55:23.016] [INFO] server - Route Sub System: MASTER
Method: POST
URL:/master/insert/user/points
[2016-12-30 18:55:36.607] [INFO] server - Route Sub System: MASTER
Method: POST
URL:/master/sku/list/all
[2016-12-30 18:55:36.656] [INFO] server - Route Sub System: MASTER
Method: POST
URL:/master/sku/list/all
[2016-12-30 18:55:36.697] [INFO] server - Route Sub System: MASTER
Method: POST
URL:/master/get/data/push/points
[2016-12-30 19:28:12.552] [INFO] server - Route Sub System: MASTER
Method: GET
URL:/master/program/get/lostpoint/annectos_admin@annectos.in
[2016-12-30 19:28:12.574] [INFO] server - Route Sub System: MASTER
Method: GET
URL:/master/program/get/points_pending_for_paymt_appv/annectos_admin@annectos.in
[2016-12-30 19:28:12.580] [INFO] server - Route Sub System: MASTER
Method: GET
URL:/master/get/user_id_wise_invoice_amount/annectos_admin@annectos.in
[2016-12-30 19:28:12.584] [INFO] server - Route Sub System: MASTER
Method: GET
URL:/master/top/si
[2016-12-30 19:28:12.588] [INFO] server - Route Sub System: MASTER
Method: GET
URL:/master/details/goal/value/of/user/annectos_admin@annectos.in
[2016-12-30 19:28:12.589] [INFO] server - Route Sub System: MASTER
Method: GET
URL:/master/invoice/month/proceedings/of/user/annectos_admin@annectos.in/Wed%20Nov%2030%202016%2019:28:12%20GMT+0530%20(India%20Standard%20Time)
[2016-12-30 19:28:13.758] [INFO] server - Route Sub System: MASTER
Method: GET
URL:/master/si/by/allIndia/dashboard
[2016-12-30 19:28:22.358] [INFO] server - Route Sub System: MASTER
Method: GET
URL:/master/details/totalsale/by/user/annectos_admin@annectos.in
[2016-12-30 19:30:12.860] [INFO] server - Route Sub System: MASTER
Method: GET
URL:/master/program/get/lostpoint/annectos_admin@annectos.in
[2016-12-30 19:34:49.287] [INFO] server - Route Sub System: MASTER
Method: POST
URL:/master/sku/list/all
[2016-12-30 19:34:49.289] [INFO] server - Route Sub System: MASTER
Method: POST
URL:/master/sku/list/all
[2016-12-30 19:34:49.292] [INFO] server - Route Sub System: MASTER
Method: GET
URL:/master/program/get/lostpoint/annectos_admin@annectos.in
[2016-12-30 19:34:49.382] [INFO] server - Route Sub System: MASTER
Method: GET
URL:/master/program/get/points_pending_for_paymt_appv/annectos_admin@annectos.in
[2016-12-30 19:34:49.389] [INFO] server - Route Sub System: MASTER
Method: GET
URL:/master/get/user_id_wise_invoice_amount/annectos_admin@annectos.in
[2016-12-30 19:34:49.396] [INFO] server - Route Sub System: MASTER
Method: GET
URL:/master/top/si
[2016-12-30 19:34:49.402] [INFO] server - Route Sub System: MASTER
Method: GET
URL:/master/details/goal/value/of/user/annectos_admin@annectos.in
[2016-12-30 19:34:49.405] [INFO] server - Route Sub System: MASTER
Method: GET
URL:/master/invoice/month/proceedings/of/user/annectos_admin@annectos.in/Wed%20Nov%2030%202016%2019:34:49%20GMT+0530%20(India%20Standard%20Time)
[2016-12-30 19:34:50.505] [INFO] server - Route Sub System: MASTER
Method: GET
URL:/master/si/by/allIndia/dashboard
[2016-12-30 19:35:00.319] [INFO] server - Route Sub System: MASTER
Method: GET
URL:/master/details/totalsale/by/user/annectos_admin@annectos.in
[2016-12-30 19:35:00.328] [INFO] server - Route Sub System: MASTER
Method: POST
URL:/master/get/data/push/points
[2016-12-30 19:36:49.600] [INFO] server - Route Sub System: MASTER
Method: GET
URL:/master/program/get/lostpoint/annectos_admin@annectos.in
[2016-12-30 19:37:00.629] [INFO] server - Route Sub System: MASTER
Method: POST
URL:/master/get/data/push/points
[2016-12-30 19:39:51.181] [INFO] server - Route Sub System: MASTER
Method: POST
URL:/master/sku/list/all
[2016-12-30 19:39:51.185] [INFO] server - Route Sub System: MASTER
Method: POST
URL:/master/sku/list/all
[2016-12-30 19:39:51.189] [INFO] server - Route Sub System: MASTER
Method: POST
URL:/master/get/data/push/points
[2016-12-30 19:40:28.900] [INFO] server - express loaded
[2016-12-30 19:40:28.930] [INFO] server - all routes are loaded
[2016-12-30 19:40:28.932] [INFO] server - http server started
[2016-12-30 19:40:28.932] [INFO] server - Listening to port 3000
[2016-12-30 19:40:41.565] [INFO] server - Route Sub System: MASTER
Method: GET
URL:/master/distributor/list/
[2016-12-30 19:40:44.185] [INFO] server - Route Sub System: MASTER
Method: POST
URL:/master/get/data/push/points
[2016-12-30 19:41:16.338] [INFO] server - Route Sub System: MASTER
Method: POST
URL:/master/insert/user/points
[2016-12-30 19:43:48.854] [INFO] server - express loaded
[2016-12-30 19:43:48.899] [INFO] server - all routes are loaded
[2016-12-30 19:43:48.903] [INFO] server - http server started
[2016-12-30 19:43:48.903] [INFO] server - Listening to port 3000
[2017-01-03 10:20:49.189] [INFO] server - express loaded
[2017-01-03 10:20:49.735] [INFO] server - all routes are loaded
[2017-01-03 10:20:49.735] [INFO] server - http server started
[2017-01-03 10:20:49.735] [INFO] server - Listening to port 3000
[2017-01-03 10:21:44.311] [INFO] server - express loaded
[2017-01-03 10:21:44.436] [INFO] server - all routes are loaded
[2017-01-03 10:21:44.452] [INFO] server - http server started
[2017-01-03 10:21:44.452] [INFO] server - Listening to port 3000
[2017-01-03 10:22:23.989] [INFO] server - express loaded
[2017-01-03 10:22:24.036] [INFO] server - all routes are loaded
[2017-01-03 10:22:24.040] [INFO] server - http server started
[2017-01-03 10:22:24.040] [INFO] server - Listening to port 3000
[2017-01-03 10:26:22.100] [INFO] server - Route Sub System: LOGIN
Method: POST
URL:/login/by
[2017-01-03 10:26:24.195] [INFO] server - Route Sub System: MASTER
Method: POST
URL:/master/sku/list/all
[2017-01-03 10:26:24.199] [INFO] server - Route Sub System: MASTER
Method: GET
URL:/master/search/invoice/by/pending/undefined
[2017-01-03 10:26:29.891] [INFO] server - Route Sub System: MASTER
Method: GET
URL:/master/search/invoice/by/pending/undefined
[2017-01-03 10:26:35.374] [INFO] server - Route Sub System: MASTER
Method: POST
URL:/master/get/data/push/points
[2017-01-03 10:28:40.452] [INFO] server - express loaded
[2017-01-03 10:28:40.495] [INFO] server - all routes are loaded
[2017-01-03 10:28:40.499] [INFO] server - http server started
[2017-01-03 10:28:40.499] [INFO] server - Listening to port 3000
[2017-01-03 10:31:34.328] [INFO] server - Route Sub System: MASTER
Method: POST
URL:/master/sku/list/all
[2017-01-03 10:31:34.334] [INFO] server - Route Sub System: MASTER
Method: POST
URL:/master/sku/list/all
[2017-01-03 10:31:34.336] [INFO] server - Route Sub System: MASTER
Method: POST
URL:/master/get/data/push/points
[2017-01-03 10:31:34.924] [INFO] server - Route Sub System: MASTER
Method: GET
URL:/master/distributor/list/
[2017-01-03 10:31:35.446] [INFO] server - Route Sub System: MASTER
Method: POST
URL:/master/get/data/push/points
[2017-01-03 10:32:22.458] [INFO] server - express loaded
[2017-01-03 10:32:22.498] [INFO] server - all routes are loaded
[2017-01-03 10:32:22.501] [INFO] server - http server started
[2017-01-03 10:32:22.501] [INFO] server - Listening to port 3000
[2017-01-03 10:32:26.375] [INFO] server - Route Sub System: MASTER
Method: GET
URL:/master/program/get/lostpoint/annectos_admin@annectos.in
[2017-01-03 10:32:26.387] [INFO] server - Route Sub System: MASTER
Method: GET
URL:/master/program/get/points_pending_for_paymt_appv/annectos_admin@annectos.in
[2017-01-03 10:32:26.403] [INFO] server - Route Sub System: MASTER
Method: GET
URL:/master/get/user_id_wise_invoice_amount/annectos_admin@annectos.in
[2017-01-03 10:32:26.415] [INFO] server - Route Sub System: MASTER
Method: GET
URL:/master/top/si
[2017-01-03 10:32:26.421] [INFO] server - Route Sub System: MASTER
Method: GET
URL:/master/details/goal/value/of/user/annectos_admin@annectos.in
[2017-01-03 10:32:26.427] [INFO] server - Route Sub System: MASTER
Method: GET
URL:/master/invoice/month/proceedings/of/user/annectos_admin@annectos.in/Sun%20Dec%2004%202016%2010:32:25%20GMT+0530%20(India%20Standard%20Time)
[2017-01-03 10:32:27.653] [INFO] server - Route Sub System: MASTER
Method: GET
URL:/master/si/by/allIndia/dashboard
[2017-01-03 10:32:40.499] [INFO] server - Route Sub System: MASTER
Method: GET
URL:/master/details/totalsale/by/user/annectos_admin@annectos.in
[2017-01-03 10:32:40.818] [INFO] server - Route Sub System: MASTER
Method: POST
URL:/master/get/data/push/points
[2017-01-03 10:34:11.407] [INFO] server - express loaded
[2017-01-03 10:34:11.450] [INFO] server - all routes are loaded
[2017-01-03 10:34:11.453] [INFO] server - http server started
[2017-01-03 10:34:11.453] [INFO] server - Listening to port 3000
[2017-01-03 10:34:17.593] [INFO] server - Route Sub System: MASTER
Method: POST
URL:/master/insert/user/points
[2017-01-03 10:34:25.620] [INFO] server - Route Sub System: MASTER
Method: POST
URL:/master/insert/disti/points
[2017-01-03 10:34:25.922] [INFO] server - Route Sub System: MASTER
Method: POST
URL:/master/insert/disti/points
[2017-01-03 10:36:25.947] [INFO] server - Route Sub System: MASTER
Method: POST
URL:/master/insert/disti/points
[2017-01-03 10:37:34.090] [INFO] server - express loaded
[2017-01-03 10:37:34.138] [INFO] server - all routes are loaded
[2017-01-03 10:37:34.141] [INFO] server - http server started
[2017-01-03 10:37:34.141] [INFO] server - Listening to port 3000
[2017-01-03 10:38:43.378] [INFO] server - express loaded
[2017-01-03 10:38:43.422] [INFO] server - all routes are loaded
[2017-01-03 10:38:43.426] [INFO] server - http server started
[2017-01-03 10:38:43.426] [INFO] server - Listening to port 3000
[2017-01-03 10:38:47.448] [INFO] server - Route Sub System: MASTER
Method: POST
URL:/master/sku/list/all
[2017-01-03 10:38:48.084] [INFO] server - Route Sub System: MASTER
Method: POST
URL:/master/get/data/push/points
[2017-01-03 10:42:08.429] [INFO] server - Route Sub System: MASTER
Method: POST
URL:/master/insert/user/points
[2017-01-03 10:42:15.117] [INFO] server - Route Sub System: MASTER
Method: POST
URL:/master/insert/disti/points
[2017-01-03 10:42:15.424] [INFO] server - Route Sub System: MASTER
Method: POST
URL:/master/insert/disti/points
[2017-01-03 10:42:18.875] [INFO] server - Route Sub System: uncaught error- exitting
Method: uncaught error
URL:/{}uncaught error
[2017-01-03 10:47:16.365] [INFO] server - Route Sub System: MASTER
Method: POST
URL:/master/insert/user/points
[2017-01-03 10:47:23.295] [INFO] server - Route Sub System: MASTER
Method: POST
URL:/master/insert/disti/points
[2017-01-03 10:47:23.296] [INFO] server - Route Sub System: MASTER
Method: POST
URL:/master/insert/disti/points
[2017-01-03 10:49:03.698] [INFO] server - Route Sub System: MASTER
Method: POST
URL:/master/insert/user/points
[2017-01-03 10:49:09.142] [INFO] server - Route Sub System: MASTER
Method: POST
URL:/master/insert/disti/points
[2017-01-03 10:49:09.143] [INFO] server - Route Sub System: MASTER
Method: POST
URL:/master/insert/disti/points
[2017-01-03 10:50:58.058] [INFO] server - Route Sub System: MASTER
Method: POST
URL:/master/insert/user/points
[2017-01-03 10:51:03.541] [INFO] server - Route Sub System: MASTER
Method: POST
URL:/master/insert/disti/points
[2017-01-03 10:51:03.543] [INFO] server - Route Sub System: MASTER
Method: POST
URL:/master/insert/disti/points
[2017-01-03 10:51:56.408] [INFO] server - Route Sub System: MASTER
Method: POST
URL:/master/sku/list/all
[2017-01-03 10:51:56.440] [INFO] server - Route Sub System: MASTER
Method: POST
URL:/master/sku/list/all
[2017-01-03 10:51:56.459] [INFO] server - Route Sub System: MASTER
Method: POST
URL:/master/get/data/push/points
[2017-01-03 10:52:14.684] [INFO] server - Route Sub System: MASTER
Method: GET
URL:/master/distributor/list/
[2017-01-03 10:52:15.628] [INFO] server - Route Sub System: MASTER
Method: POST
URL:/master/get/data/push/points
[2017-01-03 10:53:56.465] [INFO] server - Route Sub System: MASTER
Method: POST
URL:/master/get/data/push/points
[2017-01-03 10:54:15.940] [INFO] server - Route Sub System: MASTER
Method: POST
URL:/master/get/data/push/points
[2017-01-03 10:55:51.100] [INFO] server - express loaded
[2017-01-03 10:55:51.174] [INFO] server - all routes are loaded
[2017-01-03 10:55:51.176] [INFO] server - http server started
[2017-01-03 10:55:51.176] [INFO] server - Listening to port 3000
[2017-01-03 10:55:55.609] [INFO] server - Route Sub System: MASTER
Method: POST
URL:/master/sku/list/all
[2017-01-03 10:55:55.613] [INFO] server - Route Sub System: MASTER
Method: POST
URL:/master/sku/list/all
[2017-01-03 10:55:55.615] [INFO] server - Route Sub System: MASTER
Method: POST
URL:/master/get/data/push/points
[2017-01-03 10:55:56.441] [INFO] server - Route Sub System: MASTER
Method: GET
URL:/master/distributor/list/
[2017-01-03 10:55:57.903] [INFO] server - Route Sub System: MASTER
Method: POST
URL:/master/get/data/push/points
[2017-01-03 10:56:58.850] [INFO] server - express loaded
[2017-01-03 10:56:58.892] [INFO] server - all routes are loaded
[2017-01-03 10:56:58.895] [INFO] server - http server started
[2017-01-03 10:56:58.896] [INFO] server - Listening to port 3000
[2017-01-03 10:57:03.018] [INFO] server - Route Sub System: MASTER
Method: GET
URL:/master/program/get/lostpoint/annectos_admin@annectos.in
[2017-01-03 10:57:03.024] [INFO] server - Route Sub System: MASTER
Method: GET
URL:/master/program/get/points_pending_for_paymt_appv/annectos_admin@annectos.in
[2017-01-03 10:57:03.029] [INFO] server - Route Sub System: MASTER
Method: GET
URL:/master/get/user_id_wise_invoice_amount/annectos_admin@annectos.in
[2017-01-03 10:57:03.035] [INFO] server - Route Sub System: MASTER
Method: GET
URL:/master/top/si
[2017-01-03 10:57:03.041] [INFO] server - Route Sub System: MASTER
Method: GET
URL:/master/details/goal/value/of/user/annectos_admin@annectos.in
[2017-01-03 10:57:03.045] [INFO] server - Route Sub System: MASTER
Method: GET
URL:/master/invoice/month/proceedings/of/user/annectos_admin@annectos.in/Sun%20Dec%2004%202016%2010:57:02%20GMT+0530%20(India%20Standard%20Time)
[2017-01-03 10:57:04.118] [INFO] server - Route Sub System: MASTER
Method: GET
URL:/master/si/by/allIndia/dashboard
[2017-01-03 10:57:14.413] [INFO] server - Route Sub System: MASTER
Method: GET
URL:/master/details/totalsale/by/user/annectos_admin@annectos.in
[2017-01-03 10:57:14.660] [INFO] server - Route Sub System: MASTER
Method: POST
URL:/master/get/data/push/points
[2017-01-03 10:58:17.054] [INFO] server - Route Sub System: MASTER
Method: POST
URL:/master/insert/user/points
[2017-01-03 10:58:23.868] [INFO] server - Route Sub System: MASTER
Method: POST
URL:/master/insert/disti/points
[2017-01-03 10:58:23.873] [INFO] server - Route Sub System: MASTER
Method: POST
URL:/master/insert/disti/points
