[2017-01-07 10:28:25.868] [INFO] server - express loaded
[2017-01-07 10:28:26.412] [INFO] server - all routes are loaded
[2017-01-07 10:28:26.433] [INFO] server - http server started
[2017-01-07 10:28:26.433] [INFO] server - Listening to port 3000
[2017-01-07 10:28:30.968] [INFO] server - Route Sub System: LOGIN
Method: POST
URL:/login/by
[2017-01-07 10:28:33.578] [INFO] server - Route Sub System: MASTER
Method: POST
URL:/master/sku/list/all
[2017-01-07 10:28:33.584] [INFO] server - Route Sub System: MASTER
Method: GET
URL:/master/search/invoice/by/pending/undefined
[2017-01-07 10:28:39.692] [INFO] server - Route Sub System: MASTER
Method: GET
URL:/master/search/invoice/by/pending/undefined
[2017-01-07 10:28:45.030] [INFO] server - Route Sub System: MASTER
Method: GET
URL:/master/retailer/list
[2017-01-07 10:28:45.040] [INFO] server - Route Sub System: MASTER
Method: GET
URL:/master/invoice/detail/by/id/schneider-SkNqmxASx
[2017-01-07 10:28:45.047] [INFO] server - Route Sub System: MASTER
Method: GET
URL:/master/get/invoice/details/by/user_id/praveen@annectos.in
[2017-01-07 10:31:17.553] [INFO] server - Route Sub System: MASTER
Method: POST
URL:/master/search/by/part/code
[2017-01-07 10:31:30.173] [INFO] server - Route Sub System: MASTER
Method: POST
URL:/master/search/by/part/code
[2017-01-07 10:31:46.915] [INFO] server - Route Sub System: MASTER
Method: POST
URL:/master/invoice/claim/details/update
[2017-01-07 10:44:32.189] [INFO] server - express loaded
[2017-01-07 10:44:32.258] [INFO] server - all routes are loaded
[2017-01-07 10:44:32.261] [INFO] server - http server started
[2017-01-07 10:44:32.261] [INFO] server - Listening to port 3000
[2017-01-07 10:45:48.940] [INFO] server - express loaded
[2017-01-07 10:45:48.982] [INFO] server - all routes are loaded
[2017-01-07 10:45:48.986] [INFO] server - http server started
[2017-01-07 10:45:48.986] [INFO] server - Listening to port 3000
[2017-01-07 10:46:04.332] [INFO] server - Route Sub System: MASTER
Method: GET
URL:/master/search/invoice/by/pending/undefined
[2017-01-07 10:46:09.289] [INFO] server - Route Sub System: MASTER
Method: GET
URL:/master/search/invoice/by/pending/undefined
[2017-01-07 10:46:38.024] [INFO] server - Route Sub System: MASTER
Method: GET
URL:/master/retailer/list
[2017-01-07 10:46:38.033] [INFO] server - Route Sub System: MASTER
Method: GET
URL:/master/invoice/detail/by/id/schneider-SkNqmxASx
[2017-01-07 10:46:38.037] [INFO] server - Route Sub System: MASTER
Method: GET
URL:/master/get/invoice/details/by/user_id/praveen@annectos.in
[2017-01-07 10:46:48.994] [INFO] server - Route Sub System: MASTER
Method: POST
URL:/master/search/by/part/code
[2017-01-07 10:47:02.486] [INFO] server - Route Sub System: MASTER
Method: POST
URL:/master/search/by/part/code
[2017-01-07 10:47:16.295] [INFO] server - Route Sub System: MASTER
Method: POST
URL:/master/invoice/claim/details/update
[2017-01-07 10:48:18.821] [INFO] server - express loaded
[2017-01-07 10:48:18.867] [INFO] server - all routes are loaded
[2017-01-07 10:48:18.871] [INFO] server - http server started
[2017-01-07 10:48:18.871] [INFO] server - Listening to port 3000
[2017-01-07 10:48:34.910] [INFO] server - Route Sub System: MASTER
Method: GET
URL:/master/search/invoice/by/pending/undefined
[2017-01-07 10:48:38.372] [INFO] server - Route Sub System: MASTER
Method: GET
URL:/master/search/invoice/by/pending/undefined
[2017-01-07 10:48:41.047] [INFO] server - Route Sub System: MASTER
Method: GET
URL:/master/retailer/list
[2017-01-07 10:48:41.054] [INFO] server - Route Sub System: MASTER
Method: GET
URL:/master/invoice/detail/by/id/schneider-SkNqmxASx
[2017-01-07 10:48:41.058] [INFO] server - Route Sub System: MASTER
Method: GET
URL:/master/get/invoice/details/by/user_id/praveen@annectos.in
[2017-01-07 10:48:50.664] [INFO] server - Route Sub System: MASTER
Method: POST
URL:/master/search/by/part/code
[2017-01-07 10:49:13.438] [INFO] server - Route Sub System: MASTER
Method: POST
URL:/master/search/by/part/code
[2017-01-07 10:49:26.195] [INFO] server - Route Sub System: MASTER
Method: POST
URL:/master/search/by/part/code
[2017-01-07 10:49:43.697] [INFO] server - Route Sub System: MASTER
Method: POST
URL:/master/invoice/claim/details/update
[2017-01-07 10:51:13.643] [INFO] server - express loaded
[2017-01-07 10:51:13.674] [INFO] server - all routes are loaded
[2017-01-07 10:51:13.677] [INFO] server - http server started
[2017-01-07 10:51:13.677] [INFO] server - Listening to port 3000
[2017-01-07 10:51:29.059] [INFO] server - Route Sub System: MASTER
Method: GET
URL:/master/search/invoice/by/pending/undefined
[2017-01-07 10:51:33.836] [INFO] server - Route Sub System: MASTER
Method: GET
URL:/master/search/invoice/by/pending/undefined
[2017-01-07 10:51:36.270] [INFO] server - Route Sub System: MASTER
Method: GET
URL:/master/retailer/list
[2017-01-07 10:51:36.283] [INFO] server - Route Sub System: MASTER
Method: GET
URL:/master/invoice/detail/by/id/schneider-SkNqmxASx
[2017-01-07 10:51:36.291] [INFO] server - Route Sub System: MASTER
Method: GET
URL:/master/get/invoice/details/by/user_id/praveen@annectos.in
[2017-01-07 10:51:47.391] [INFO] server - Route Sub System: MASTER
Method: POST
URL:/master/search/by/part/code
[2017-01-07 10:52:01.180] [INFO] server - Route Sub System: MASTER
Method: POST
URL:/master/search/by/part/code
[2017-01-07 10:52:15.227] [INFO] server - Route Sub System: MASTER
Method: POST
URL:/master/invoice/claim/details/update
[2017-01-07 10:53:25.106] [INFO] server - express loaded
[2017-01-07 10:53:25.150] [INFO] server - all routes are loaded
[2017-01-07 10:53:25.153] [INFO] server - http server started
[2017-01-07 10:53:25.154] [INFO] server - Listening to port 3000
[2017-01-07 10:57:39.784] [INFO] server - express loaded
[2017-01-07 10:57:39.840] [INFO] server - all routes are loaded
[2017-01-07 10:57:39.844] [INFO] server - http server started
[2017-01-07 10:57:39.844] [INFO] server - Listening to port 3000
[2017-01-07 10:58:07.794] [INFO] server - Route Sub System: MASTER
Method: GET
URL:/master/search/invoice/by/pending/undefined
[2017-01-07 10:58:12.787] [INFO] server - Route Sub System: MASTER
Method: GET
URL:/master/search/invoice/by/pending/undefined
[2017-01-07 10:58:17.611] [INFO] server - Route Sub System: MASTER
Method: GET
URL:/master/retailer/list
[2017-01-07 10:58:17.622] [INFO] server - Route Sub System: MASTER
Method: GET
URL:/master/invoice/detail/by/id/schneider-BkONig0Sl
[2017-01-07 10:58:17.913] [INFO] server - Route Sub System: MASTER
Method: GET
URL:/master/get/invoice/details/by/user_id/praveen@annectos.in
[2017-01-07 10:58:28.081] [INFO] server - Route Sub System: MASTER
Method: POST
URL:/master/search/by/part/code
[2017-01-07 10:58:50.718] [INFO] server - Route Sub System: MASTER
Method: POST
URL:/master/search/by/part/code
[2017-01-07 11:00:59.190] [INFO] server - Route Sub System: MASTER
Method: POST
URL:/master/invoice/claim/details/update
[2017-01-07 11:00:59.501] [INFO] server - Route Sub System: MASTER
Method: GET
URL:/master/search/invoice/by/pending/undefined
[2017-01-07 11:01:03.877] [INFO] server - Route Sub System: MASTER
Method: GET
URL:/master/search/invoice/by/pending/undefined
[2017-01-07 11:01:41.224] [INFO] server - Route Sub System: MASTER
Method: GET
URL:/master/search/invoice/by/Verified%20&%20Approved/undefined
[2017-01-07 11:06:19.024] [INFO] server - Route Sub System: MASTER
Method: POST
URL:/master/search/duplicate/invoice/list
[2017-01-07 11:07:23.774] [INFO] server - Route Sub System: MASTER
Method: GET
URL:/master/search/invoice/by/pending/undefined
[2017-01-07 11:07:47.831] [INFO] server - express loaded
[2017-01-07 11:07:47.876] [INFO] server - all routes are loaded
[2017-01-07 11:07:47.879] [INFO] server - http server started
[2017-01-07 11:07:47.879] [INFO] server - Listening to port 3000
[2017-01-07 11:07:48.591] [INFO] server - Route Sub System: MASTER
Method: GET
URL:/master/retailer/list
[2017-01-07 11:07:48.603] [INFO] server - Route Sub System: MASTER
Method: GET
URL:/master/invoice/detail/by/id/schneider-ByNv6lASl
[2017-01-07 11:07:48.610] [INFO] server - Route Sub System: MASTER
Method: GET
URL:/master/get/invoice/details/by/user_id/praveen@annectos.in
[2017-01-07 11:08:18.871] [INFO] server - Route Sub System: MASTER
Method: POST
URL:/master/search/by/part/code
[2017-01-07 11:08:33.165] [INFO] server - Route Sub System: MASTER
Method: POST
URL:/master/search/by/part/code
[2017-01-07 11:09:11.183] [INFO] server - Route Sub System: MASTER
Method: POST
URL:/master/invoice/claim/details/update
[2017-01-07 11:09:18.230] [INFO] server - Route Sub System: uncaught error- exitting
Method: uncaught error
URL:/{}uncaught error
[2017-01-07 11:09:21.506] [INFO] server - Route Sub System: MASTER
Method: POST
URL:/master/sku/list/all
[2017-01-07 11:09:21.638] [INFO] server - Route Sub System: MASTER
Method: POST
URL:/master/sku/list/all
[2017-01-07 11:09:21.775] [INFO] server - Route Sub System: MASTER
Method: GET
URL:/master/retailer/list
[2017-01-07 11:09:21.782] [INFO] server - Route Sub System: MASTER
Method: GET
URL:/master/invoice/detail/by/id/schneider-ByNv6lASl
[2017-01-07 11:09:21.941] [INFO] server - Route Sub System: MASTER
Method: GET
URL:/master/get/invoice/details/by/user_id/praveen@annectos.in
[2017-01-07 11:09:44.604] [INFO] server - Route Sub System: MASTER
Method: POST
URL:/master/search/by/part/code
[2017-01-07 11:09:57.952] [INFO] server - Route Sub System: MASTER
Method: POST
URL:/master/search/by/part/code
[2017-01-07 11:19:53.051] [INFO] server - Route Sub System: MASTER
Method: POST
URL:/master/invoice/claim/details/update
[2017-01-07 11:19:59.394] [INFO] server - Route Sub System: uncaught error- exitting
Method: uncaught error
URL:/{}uncaught error
[2017-01-07 11:20:30.969] [INFO] server - express loaded
[2017-01-07 11:20:31.008] [INFO] server - all routes are loaded
[2017-01-07 11:20:31.012] [INFO] server - http server started
[2017-01-07 11:20:31.012] [INFO] server - Listening to port 3000
[2017-01-07 11:20:51.294] [INFO] server - Route Sub System: MASTER
Method: POST
URL:/master/sku/list/all
[2017-01-07 11:20:51.304] [INFO] server - Route Sub System: MASTER
Method: POST
URL:/master/sku/list/all
[2017-01-07 11:20:51.307] [INFO] server - Route Sub System: MASTER
Method: GET
URL:/master/retailer/list
[2017-01-07 11:20:51.405] [INFO] server - Route Sub System: MASTER
Method: GET
URL:/master/invoice/detail/by/id/schneider-ByNv6lASl
[2017-01-07 11:20:51.415] [INFO] server - Route Sub System: MASTER
Method: GET
URL:/master/get/invoice/details/by/user_id/praveen@annectos.in
[2017-01-07 11:21:05.252] [INFO] server - Route Sub System: MASTER
Method: POST
URL:/master/search/by/part/code
[2017-01-07 11:21:21.630] [INFO] server - Route Sub System: MASTER
Method: POST
URL:/master/search/by/part/code
[2017-01-07 11:22:18.346] [INFO] server - Route Sub System: MASTER
Method: POST
URL:/master/invoice/claim/details/update
[2017-01-07 11:22:24.716] [INFO] server - Route Sub System: uncaught error- exitting
Method: uncaught error
URL:/{}uncaught error
[2017-01-07 11:24:00.639] [INFO] server - express loaded
[2017-01-07 11:24:00.679] [INFO] server - all routes are loaded
[2017-01-07 11:24:00.682] [INFO] server - http server started
[2017-01-07 11:24:00.682] [INFO] server - Listening to port 3000
[2017-01-07 11:24:55.632] [INFO] server - Route Sub System: MASTER
Method: POST
URL:/master/invoice/claim/details/update
[2017-01-07 11:26:35.136] [INFO] server - Route Sub System: MASTER
Method: POST
URL:/master/sku/list/all
[2017-01-07 11:26:35.252] [INFO] server - Route Sub System: MASTER
Method: POST
URL:/master/sku/list/all
[2017-01-07 11:26:35.438] [INFO] server - Route Sub System: MASTER
Method: GET
URL:/master/retailer/list
[2017-01-07 11:26:35.555] [INFO] server - Route Sub System: MASTER
Method: GET
URL:/master/invoice/detail/by/id/schneider-ByNv6lASl
[2017-01-07 11:26:35.565] [INFO] server - Route Sub System: MASTER
Method: GET
URL:/master/get/invoice/details/by/user_id/praveen@annectos.in
[2017-01-07 11:26:45.583] [INFO] server - Route Sub System: MASTER
Method: GET
URL:/master/search/invoice/by/Verified%20&%20Approved/undefined
[2017-01-07 11:27:03.819] [INFO] server - Route Sub System: MASTER
Method: GET
URL:/master/search/invoice/by/Verified%20&%20Approved/undefined
[2017-01-07 11:27:37.933] [INFO] server - Route Sub System: MASTER
Method: GET
URL:/master/search/invoice/by/pending/undefined
[2017-01-07 11:27:50.007] [INFO] server - Route Sub System: MASTER
Method: GET
URL:/master/retailer/list
[2017-01-07 11:27:50.015] [INFO] server - Route Sub System: MASTER
Method: GET
URL:/master/invoice/detail/by/id/schneider-ByNv6lASl
[2017-01-07 11:27:50.023] [INFO] server - Route Sub System: MASTER
Method: GET
URL:/master/get/invoice/details/by/user_id/praveen@annectos.in
[2017-01-07 11:28:10.265] [INFO] server - Route Sub System: MASTER
Method: POST
URL:/master/search/by/part/code
[2017-01-07 11:28:23.821] [INFO] server - Route Sub System: MASTER
Method: POST
URL:/master/search/by/part/code
[2017-01-07 11:29:05.174] [INFO] server - Route Sub System: MASTER
Method: POST
URL:/master/invoice/claim/details/update
[2017-01-07 11:31:33.421] [INFO] server - Route Sub System: MASTER
Method: POST
URL:/master/sku/list/all
[2017-01-07 11:31:33.426] [INFO] server - Route Sub System: MASTER
Method: POST
URL:/master/sku/list/all
[2017-01-07 11:31:33.429] [INFO] server - Route Sub System: MASTER
Method: GET
URL:/master/retailer/list
[2017-01-07 11:31:33.525] [INFO] server - Route Sub System: MASTER
Method: GET
URL:/master/invoice/detail/by/id/schneider-ByNv6lASl
[2017-01-07 11:31:33.533] [INFO] server - Route Sub System: MASTER
Method: GET
URL:/master/get/invoice/details/by/user_id/praveen@annectos.in
[2017-01-07 11:31:39.772] [INFO] server - Route Sub System: MASTER
Method: GET
URL:/master/search/invoice/by//undefined
[2017-01-07 11:31:39.774] [INFO] server - Route Sub System: MASTER
Method: GET
URL:/master/search/invoice/by//undefined
[2017-01-07 11:31:51.855] [INFO] server - Route Sub System: MASTER
Method: GET
URL:/master/search/invoice/by/pending/undefined
[2017-01-07 11:31:58.788] [INFO] server - Route Sub System: MASTER
Method: GET
URL:/master/retailer/list
[2017-01-07 11:31:58.796] [INFO] server - Route Sub System: MASTER
Method: GET
URL:/master/invoice/detail/by/id/schneider-ByNv6lASl
[2017-01-07 11:31:58.803] [INFO] server - Route Sub System: MASTER
Method: GET
URL:/master/get/invoice/details/by/user_id/praveen@annectos.in
[2017-01-07 11:32:22.362] [INFO] server - Route Sub System: MASTER
Method: POST
URL:/master/search/by/part/code
[2017-01-07 11:32:36.164] [INFO] server - Route Sub System: MASTER
Method: POST
URL:/master/search/by/part/code
[2017-01-07 11:33:01.816] [INFO] server - Route Sub System: MASTER
Method: POST
URL:/master/invoice/claim/details/update
[2017-01-07 11:35:05.322] [INFO] server - Route Sub System: MASTER
Method: POST
URL:/master/sku/list/all
[2017-01-07 11:35:05.431] [INFO] server - Route Sub System: MASTER
Method: POST
URL:/master/sku/list/all
[2017-01-07 11:35:05.596] [INFO] server - Route Sub System: MASTER
Method: GET
URL:/master/retailer/list
[2017-01-07 11:35:05.733] [INFO] server - Route Sub System: MASTER
Method: GET
URL:/master/invoice/detail/by/id/schneider-ByNv6lASl
[2017-01-07 11:35:05.737] [INFO] server - Route Sub System: MASTER
Method: GET
URL:/master/get/invoice/details/by/user_id/praveen@annectos.in
[2017-01-07 11:35:09.259] [INFO] server - Route Sub System: MASTER
Method: GET
URL:/master/search/invoice/by//undefined
[2017-01-07 11:35:09.262] [INFO] server - Route Sub System: MASTER
Method: GET
URL:/master/search/invoice/by//undefined
[2017-01-07 11:35:11.915] [INFO] server - Route Sub System: MASTER
Method: GET
URL:/master/search/invoice/by/pending/undefined
[2017-01-07 11:35:20.629] [INFO] server - Route Sub System: MASTER
Method: GET
URL:/master/retailer/list
[2017-01-07 11:35:20.636] [INFO] server - Route Sub System: MASTER
Method: GET
URL:/master/invoice/detail/by/id/schneider-ByNv6lASl
[2017-01-07 11:35:20.645] [INFO] server - Route Sub System: MASTER
Method: GET
URL:/master/get/invoice/details/by/user_id/praveen@annectos.in
[2017-01-07 11:35:31.721] [INFO] server - Route Sub System: MASTER
Method: POST
URL:/master/search/by/part/code
[2017-01-07 11:35:59.794] [INFO] server - Route Sub System: MASTER
Method: POST
URL:/master/search/by/part/code
[2017-01-07 11:36:32.754] [INFO] server - Route Sub System: MASTER
Method: POST
URL:/master/invoice/claim/details/update
[2017-01-07 11:38:00.724] [INFO] server - Route Sub System: MASTER
Method: GET
URL:/master/search/invoice/by/pending/undefined
[2017-01-07 11:38:05.499] [INFO] server - Route Sub System: MASTER
Method: GET
URL:/master/search/invoice/by/pending/undefined
[2017-01-07 11:38:07.864] [INFO] server - Route Sub System: MASTER
Method: GET
URL:/master/retailer/list
[2017-01-07 11:38:07.872] [INFO] server - Route Sub System: MASTER
Method: GET
URL:/master/invoice/detail/by/id/schneider-ByNv6lASl
[2017-01-07 11:38:07.876] [INFO] server - Route Sub System: MASTER
Method: GET
URL:/master/get/invoice/details/by/user_id/praveen@annectos.in
[2017-01-07 11:38:15.111] [INFO] server - Route Sub System: MASTER
Method: POST
URL:/master/search/by/part/code
[2017-01-07 11:38:38.664] [INFO] server - Route Sub System: MASTER
Method: POST
URL:/master/search/by/part/code
[2017-01-07 11:38:58.167] [INFO] server - Route Sub System: MASTER
Method: POST
URL:/master/search/by/part/code
[2017-01-07 11:39:15.698] [INFO] server - Route Sub System: MASTER
Method: POST
URL:/master/search/by/part/code
[2017-01-07 11:46:49.582] [INFO] server - express loaded
[2017-01-07 11:46:49.634] [INFO] server - all routes are loaded
[2017-01-07 11:46:49.639] [INFO] server - http server started
[2017-01-07 11:46:49.639] [INFO] server - Listening to port 3000
[2017-01-07 11:46:53.165] [INFO] server - Route Sub System: LOGIN
Method: POST
URL:/login/by
[2017-01-07 11:46:55.344] [INFO] server - Route Sub System: MASTER
Method: POST
URL:/master/sku/list/all
[2017-01-07 11:46:55.353] [INFO] server - Route Sub System: MASTER
Method: GET
URL:/master/program/get/lostpoint/praveen@annectos.in
[2017-01-07 11:46:55.367] [INFO] server - Route Sub System: MASTER
Method: GET
URL:/master/program/get/points_pending_for_paymt_appv/praveen@annectos.in
[2017-01-07 11:46:55.562] [INFO] server - Route Sub System: MASTER
Method: GET
URL:/master/get/user_id_wise_invoice_amount/praveen@annectos.in
[2017-01-07 11:46:55.569] [INFO] server - Route Sub System: MASTER
Method: GET
URL:/master/details/totalsale/by/user/praveen@annectos.in
[2017-01-07 11:46:55.574] [INFO] server - Route Sub System: MASTER
Method: GET
URL:/master/top/si
[2017-01-07 11:46:55.579] [INFO] server - Route Sub System: MASTER
Method: GET
URL:/master/details/goal/value/of/user/praveen@annectos.in
[2017-01-07 11:46:56.732] [INFO] server - Route Sub System: MASTER
Method: GET
URL:/master/invoice/month/proceedings/of/user/praveen@annectos.in/Thu%20Dec%2008%202016%2011:46:55%20GMT+0530%20(India%20Standard%20Time)
[2017-01-07 11:47:05.737] [INFO] server - Route Sub System: MASTER
Method: GET
URL:/master/si/by/allIndia/dashboard
[2017-01-07 11:47:05.749] [INFO] server - Route Sub System: MASTER
Method: GET
URL:/master/distributor/list/
[2017-01-07 11:47:13.535] [INFO] server - Route Sub System: MASTER
Method: POST
URL:/master/aws/upload/file
[2017-01-07 11:47:18.539] [INFO] server - Route Sub System: MASTER
Method: POST
URL:/master/invoice/schneider/add
[2017-01-07 11:47:18.539] [INFO] server - Invoice Add Call In Index.js
[2017-01-07 11:48:53.080] [INFO] server - Route Sub System: LOGIN
Method: POST
URL:/login/by
[2017-01-07 11:48:54.412] [INFO] server - Route Sub System: MASTER
Method: POST
URL:/master/sku/list/all
[2017-01-07 11:48:54.415] [INFO] server - Route Sub System: MASTER
Method: GET
URL:/master/search/invoice/by/pending/undefined
[2017-01-07 11:48:55.664] [INFO] server - Route Sub System: MASTER
Method: GET
URL:/master/program/get/lostpoint/praveen@annectos.in
[2017-01-07 11:49:00.101] [INFO] server - Route Sub System: MASTER
Method: GET
URL:/master/search/invoice/by/pending/undefined
[2017-01-07 11:49:31.206] [INFO] server - Route Sub System: MASTER
Method: GET
URL:/master/retailer/list
[2017-01-07 11:49:31.404] [INFO] server - Route Sub System: MASTER
Method: GET
URL:/master/invoice/detail/by/id/schneider-ryvg_-CSg
