[2016-12-27 12:00:08.769] [INFO] user_securty - user_security master started
[2016-12-27 12:55:33.060] [INFO] user_securty - user_security master started
[2016-12-27 13:03:13.948] [INFO] user_securty - user_security master started
[2016-12-27 13:05:31.957] [INFO] user_securty - user_security master started
[2016-12-27 13:05:53.692] [INFO] user_securty - user_security master started
[2016-12-27 13:07:53.593] [INFO] user_securty - user_security master started
[2016-12-27 13:11:10.512] [INFO] user_securty - user_security master started
[2016-12-27 13:12:22.388] [INFO] user_securty - user_security master started
[2016-12-27 13:14:43.080] [INFO] user_securty - user_security master started
[2016-12-27 13:17:03.102] [INFO] user_securty - user_security master started
[2016-12-27 13:18:30.895] [INFO] user_securty - user_security master started
[2016-12-27 13:20:34.146] [INFO] user_securty - user_security master started
[2016-12-27 13:22:06.966] [INFO] user_securty - user_security master started
[2016-12-27 13:29:59.744] [INFO] user_securty - user_security master started
[2016-12-27 13:35:26.034] [INFO] user_securty - user_security master started
[2016-12-27 13:36:27.938] [INFO] user_securty - user_security master started
[2016-12-27 13:38:08.720] [INFO] user_securty - user_security master started
[2016-12-27 14:38:28.300] [INFO] user_securty - user_security master started
[2016-12-27 14:38:52.027] [INFO] user_securty - user_security master started
[2016-12-27 14:39:37.877] [INFO] user_securty - user_security master started
[2016-12-27 14:40:38.189] [INFO] user_securty - user_security master started
[2016-12-27 14:42:14.095] [INFO] user_securty - user_security master started
[2016-12-27 14:43:33.742] [INFO] user_securty - user_security master started
[2016-12-27 14:55:40.447] [INFO] user_securty - user_security master started
[2016-12-27 14:58:40.938] [INFO] user_securty - user_security master started
[2016-12-27 14:59:14.533] [INFO] user_securty - user_security master started
[2016-12-27 14:59:37.030] [INFO] user_securty - user_security master started
[2016-12-27 15:01:17.220] [INFO] user_securty - user_security master started
[2016-12-27 15:02:06.483] [INFO] user_securty - user_security master started
[2016-12-27 15:05:26.663] [INFO] user_securty - user_security master started
[2016-12-27 15:05:53.949] [INFO] user_securty - user_security master started
[2016-12-27 15:28:57.431] [INFO] user_securty - user_security master started
[2016-12-27 15:29:02.374] [INFO] user_securty - user_security master started
[2016-12-27 15:31:08.642] [INFO] user_securty - user_security master started
[2016-12-27 15:32:21.403] [INFO] user_securty - user_security master started
[2016-12-27 15:33:46.583] [INFO] user_securty - user_security master started
[2016-12-27 15:34:19.224] [INFO] user_securty - user_security master started
[2016-12-27 15:36:26.054] [INFO] user_securty - user_security master started
[2016-12-27 15:44:17.923] [INFO] user_securty - user_security master started
[2016-12-27 15:44:49.606] [INFO] user_securty - user_security master started
[2016-12-27 15:47:13.992] [INFO] user_securty - user_security master started
[2016-12-27 15:49:07.069] [INFO] user_securty - user_security master started
[2016-12-27 15:58:48.117] [INFO] user_securty - user_security master started
[2016-12-27 16:00:04.612] [INFO] user_securty - user_security master started
[2016-12-27 16:01:30.514] [INFO] user_securty - user_security master started
[2016-12-27 16:02:32.660] [INFO] user_securty - user_security master started
[2016-12-27 16:05:24.086] [INFO] user_securty - user_security master started
[2016-12-27 16:08:05.765] [INFO] user_securty - user_security master started
[2016-12-27 16:09:23.674] [INFO] user_securty - user_security master started
[2016-12-27 16:12:09.630] [INFO] user_securty - user_security master started
[2016-12-27 16:13:00.248] [INFO] user_securty - user_security master started
[2016-12-27 16:13:30.447] [INFO] user_securty - user_security master started
[2016-12-27 16:14:01.614] [INFO] user_securty - user_security master started
[2016-12-27 16:15:40.630] [INFO] user_securty - user_security master started
[2016-12-27 16:17:26.629] [INFO] user_securty - user_security master started
[2016-12-27 16:20:03.307] [INFO] user_securty - user_security master started
[2016-12-27 16:21:48.233] [INFO] user_securty - user_security master started
[2016-12-27 16:22:52.770] [INFO] user_securty - user_security master started
[2016-12-27 16:24:04.712] [INFO] user_securty - user_security master started
[2016-12-27 16:25:55.464] [INFO] user_securty - user_security master started
[2016-12-27 16:27:09.169] [INFO] user_securty - user_security master started
[2016-12-27 16:27:48.698] [INFO] user_securty - user_security master started
[2016-12-27 16:28:29.901] [INFO] user_securty - user_security master started
[2016-12-27 16:30:04.050] [INFO] user_securty - user_security master started
[2016-12-27 17:35:51.245] [INFO] user_securty - user_security master started
[2016-12-27 17:37:03.788] [INFO] user_securty - user_security master started
[2016-12-27 17:38:19.294] [INFO] user_securty - user_security master started
[2016-12-27 17:39:31.249] [INFO] user_securty - user_security master started
[2016-12-27 17:40:09.733] [INFO] user_securty - user_security master started
[2016-12-27 17:43:37.670] [INFO] user_securty - user_security master started
[2016-12-27 17:45:52.800] [INFO] user_securty - user_security master started
[2016-12-27 17:46:57.073] [INFO] user_securty - user_security master started
[2016-12-27 17:48:43.699] [INFO] user_securty - user_security master started
[2016-12-27 17:49:36.638] [INFO] user_securty - user_security master started
[2016-12-27 17:59:29.714] [INFO] user_securty - user_security master started
[2016-12-27 18:00:37.895] [INFO] user_securty - user_security master started
[2016-12-27 18:01:13.994] [INFO] user_securty - user_security master started
[2016-12-27 18:02:12.408] [INFO] user_securty - user_security master started
[2016-12-27 18:03:11.126] [INFO] user_securty - user_security master started
[2016-12-27 18:04:11.467] [INFO] user_securty - user_security master started
[2016-12-27 18:08:44.291] [INFO] user_securty - user_security master started
[2016-12-27 18:09:25.461] [INFO] user_securty - user_security master started
[2016-12-27 18:10:34.289] [INFO] user_securty - user_security master started
[2016-12-27 18:12:50.847] [INFO] user_securty - user_security master started
[2016-12-27 19:16:25.180] [INFO] user_securty - user_security master started
[2016-12-27 19:24:13.289] [INFO] user_securty - user_security master started
[2016-12-27 19:24:37.780] [INFO] user_securty - user_security master started
[2016-12-27 19:27:11.722] [INFO] user_securty - user_security master started
[2016-12-28 11:31:57.792] [INFO] user_securty - user_security master started
[2016-12-28 11:32:51.923] [INFO] user_securty - user_security master started
[2016-12-28 11:41:07.087] [INFO] user_securty - user_security master started
[2016-12-28 12:02:28.679] [INFO] user_securty - user_security master started
[2016-12-28 12:03:15.811] [INFO] user_securty - user_security master started
[2016-12-28 12:03:53.233] [INFO] user_securty - user_security master started
[2016-12-28 12:05:54.214] [INFO] user_securty - user_security master started
[2016-12-28 12:06:44.693] [INFO] user_securty - user_security master started
[2016-12-28 12:09:06.778] [INFO] user_securty - user_security master started
[2016-12-28 12:10:32.022] [INFO] user_securty - user_security master started
[2016-12-28 12:11:56.694] [INFO] user_securty - user_security master started
[2016-12-28 12:22:59.848] [INFO] user_securty - user_security master started
[2016-12-28 12:25:48.016] [INFO] user_securty - user_security master started
[2016-12-28 12:28:45.342] [INFO] user_securty - user_security master started
[2016-12-28 12:28:56.606] [INFO] user_securty - user_security master started
[2016-12-28 12:30:49.991] [INFO] user_securty - user_security master started
[2016-12-28 12:32:00.129] [INFO] user_securty - user_security master started
[2016-12-28 12:39:43.347] [INFO] user_securty - user_security master started
[2016-12-28 12:39:51.491] [INFO] user_securty - user_security master started
[2016-12-28 12:41:02.489] [INFO] user_securty - user_security master started
[2016-12-28 12:41:51.256] [INFO] user_securty - user_security master started
[2016-12-28 12:45:23.740] [INFO] user_securty - user_security master started
[2016-12-28 12:48:30.368] [INFO] user_securty - user_security master started
[2016-12-28 12:53:23.587] [INFO] user_securty - user_security master started
[2016-12-28 12:54:07.864] [INFO] user_securty - user_security master started
[2016-12-28 12:54:29.417] [INFO] user_securty - user_security master started
[2016-12-28 12:55:15.827] [INFO] user_securty - user_security master started
[2016-12-28 12:57:22.388] [INFO] user_securty - user_security master started
[2016-12-28 12:59:54.793] [INFO] user_securty - user_security master started
[2016-12-28 13:06:12.927] [INFO] user_securty - user_security master started
[2016-12-28 13:09:26.227] [INFO] user_securty - user_security master started
[2016-12-28 13:10:17.120] [INFO] user_securty - user_security master started
[2016-12-28 13:13:08.646] [INFO] user_securty - user_security master started
[2016-12-28 13:13:59.362] [INFO] user_securty - user_security master started
[2016-12-28 13:14:25.790] [INFO] user_securty - user_security master started
[2016-12-28 13:15:47.474] [INFO] user_securty - user_security master started
[2016-12-28 13:17:20.427] [INFO] user_securty - user_security master started
[2016-12-28 13:20:04.917] [INFO] user_securty - user_security master started
[2016-12-28 13:21:34.774] [INFO] user_securty - user_security master started
[2016-12-28 13:25:39.112] [INFO] user_securty - user_security master started
[2016-12-28 13:34:38.069] [INFO] user_securty - user_security master started
[2016-12-28 13:36:50.954] [INFO] user_securty - user_security master started
[2016-12-28 13:38:09.063] [INFO] user_securty - user_security master started
[2016-12-28 13:41:00.857] [INFO] user_securty - user_security master started
[2016-12-28 13:44:27.491] [INFO] user_securty - user_security master started
[2016-12-28 13:47:35.850] [INFO] user_securty - user_security master started
[2016-12-28 13:47:49.265] [INFO] user_securty - user_security master started
[2016-12-28 13:50:29.140] [INFO] user_securty - user_security master started
[2016-12-28 13:58:41.167] [INFO] user_securty - user_security master started
[2016-12-28 14:00:47.853] [INFO] user_securty - user_security master started
[2016-12-28 14:03:57.878] [INFO] user_securty - user_security master started
[2016-12-28 14:12:29.878] [INFO] user_securty - user_security master started
[2016-12-28 14:13:00.930] [INFO] user_securty - user_security master started
[2016-12-28 15:39:23.346] [INFO] user_securty - user_security master started
[2016-12-28 15:41:42.269] [INFO] user_securty - user_security master started
[2016-12-28 15:42:19.814] [INFO] user_securty - user_security master started
[2016-12-28 15:44:47.963] [INFO] user_securty - user_security master started
[2016-12-28 15:49:06.262] [INFO] user_securty - user_security master started
[2016-12-28 15:50:30.634] [INFO] user_securty - user_security master started
[2016-12-28 15:52:18.655] [INFO] user_securty - user_security master started
[2016-12-28 15:53:28.286] [INFO] user_securty - user_security master started
[2016-12-28 15:57:07.635] [INFO] user_securty - user_security master started
[2016-12-28 16:12:09.914] [INFO] user_securty - user_security master started
[2016-12-28 16:15:52.180] [INFO] user_securty - user_security master started
[2016-12-28 16:16:25.655] [INFO] user_securty - user_security master started
[2016-12-28 16:19:38.048] [INFO] user_securty - user_security master started
[2016-12-28 16:23:05.570] [INFO] user_securty - user_security master started
[2016-12-28 16:34:21.212] [INFO] user_securty - user_security master started
[2016-12-28 16:39:11.980] [INFO] user_securty - user_security master started
[2016-12-28 16:41:00.657] [INFO] user_securty - user_security master started
[2016-12-28 16:45:25.778] [INFO] user_securty - user_security master started
[2016-12-28 16:51:53.507] [INFO] user_securty - user_security master started
[2016-12-28 16:56:44.200] [INFO] user_securty - user_security master started
[2016-12-28 17:04:51.616] [INFO] user_securty - user_security master started
[2016-12-28 17:06:05.924] [INFO] user_securty - user_security master started
[2016-12-28 17:20:05.066] [INFO] user_securty - user_security master started
[2016-12-28 17:31:40.749] [INFO] user_securty - user_security master started
[2016-12-28 17:32:24.542] [INFO] user_securty - user_security master started
[2016-12-28 17:39:06.585] [INFO] user_securty - user_security master started
[2016-12-28 17:39:53.559] [INFO] user_securty - user_security master started
[2016-12-28 17:40:32.655] [INFO] user_securty - user_security master started
[2016-12-28 17:46:08.608] [INFO] user_securty - user_security master started
[2016-12-28 17:47:06.073] [INFO] user_securty - user_security master started
[2016-12-28 17:47:46.154] [INFO] user_securty - user_security master started
[2016-12-28 17:57:02.554] [INFO] user_securty - user_security master started
[2016-12-28 17:57:32.476] [INFO] user_securty - user_security master started
[2016-12-28 18:02:23.537] [INFO] user_securty - user_security master started
[2016-12-28 18:03:55.915] [INFO] user_securty - user_security master started
[2016-12-28 18:04:22.633] [INFO] user_securty - user_security master started
[2016-12-28 18:06:22.830] [INFO] user_securty - user_security master started
[2016-12-28 18:45:43.921] [INFO] user_securty - user_security master started
[2016-12-28 18:52:41.704] [INFO] user_securty - user_security master started
[2016-12-28 19:05:31.159] [INFO] user_securty - user_security master started
[2016-12-28 19:07:11.646] [INFO] user_securty - user_security master started
[2016-12-28 19:07:31.073] [INFO] user_securty - user_security master started
[2016-12-29 10:20:41.528] [INFO] user_securty - user_security master started
[2016-12-29 11:00:49.790] [INFO] user_securty - user_security master started
[2016-12-29 11:22:37.009] [INFO] user_securty - user_security master started
[2016-12-29 11:23:14.829] [INFO] user_securty - user_security master started
[2016-12-29 11:23:56.430] [INFO] user_securty - user_security master started
[2016-12-29 11:28:11.307] [INFO] user_securty - user_security master started
[2016-12-29 11:35:40.675] [INFO] user_securty - user_security master started
[2016-12-29 11:36:15.386] [INFO] user_securty - user_security master started
[2016-12-29 11:36:50.831] [INFO] user_securty - user_security master started
[2016-12-29 11:37:18.643] [INFO] user_securty - user_security master started
[2016-12-29 11:37:53.322] [INFO] user_securty - user_security master started
[2016-12-29 11:40:24.565] [INFO] user_securty - user_security master started
[2016-12-29 11:42:22.514] [INFO] user_securty - user_security master started
[2016-12-29 11:46:27.239] [INFO] user_securty - user_security master started
[2016-12-29 12:04:10.965] [INFO] user_securty - user_security master started
[2016-12-29 12:09:11.049] [INFO] user_securty - user_security master started
[2016-12-29 12:17:50.200] [INFO] user_securty - user_security master started
[2016-12-29 12:40:00.646] [INFO] user_securty - user_security master started
[2016-12-29 12:50:16.361] [INFO] user_securty - user_security master started
[2016-12-29 12:54:36.499] [INFO] user_securty - user_security master started
[2016-12-29 13:22:25.326] [INFO] user_securty - user_security master started
[2016-12-29 14:20:33.954] [INFO] user_securty - user_security master started
[2016-12-29 14:57:14.187] [INFO] user_securty - user_security master started
[2016-12-29 15:04:23.053] [INFO] user_securty - user_security master started
[2016-12-29 15:08:33.762] [INFO] user_securty - user_security master started
[2016-12-29 15:20:08.272] [INFO] user_securty - user_security master started
[2016-12-29 15:27:49.121] [INFO] user_securty - user_security master started
[2016-12-29 15:28:21.143] [INFO] user_securty - user_security master started
[2016-12-29 17:26:08.265] [INFO] user_securty - user_security master started
[2016-12-29 18:09:09.694] [INFO] user_securty - user_security master started
[2016-12-29 19:08:27.202] [INFO] user_securty - user_security master started
[2016-12-29 19:09:30.247] [INFO] user_securty - user_security master started
[2016-12-29 19:11:09.690] [INFO] user_securty - user_security master started
[2016-12-30 10:05:08.936] [INFO] user_securty - user_security master started
[2016-12-30 10:22:20.217] [INFO] user_securty - user_security master started
[2016-12-30 10:22:46.341] [INFO] user_securty - user_security master started
[2016-12-30 10:24:48.325] [INFO] user_securty - user_security master started
[2016-12-30 10:33:44.864] [INFO] user_securty - user_security master started
[2016-12-30 10:36:34.993] [INFO] user_securty - user_security master started
[2016-12-30 10:43:29.035] [INFO] user_securty - user_security master started
[2016-12-30 10:44:14.869] [INFO] user_securty - user_security master started
[2016-12-30 10:44:45.648] [INFO] user_securty - user_security master started
[2016-12-30 10:53:31.851] [INFO] user_securty - user_security master started
[2016-12-30 10:55:12.057] [INFO] user_securty - user_security master started
[2016-12-30 11:10:23.728] [INFO] user_securty - user_security master started
[2016-12-30 11:14:41.658] [INFO] user_securty - user_security master started
[2016-12-30 11:29:58.342] [INFO] user_securty - user_security master started
[2016-12-30 11:46:55.462] [INFO] user_securty - user_security master started
[2016-12-30 11:57:43.555] [INFO] user_securty - user_security master started
[2016-12-30 12:16:43.002] [INFO] user_securty - user_security master started
[2016-12-30 12:20:24.322] [INFO] user_securty - user_security master started
[2016-12-30 12:32:13.174] [INFO] user_securty - user_security master started
[2016-12-30 12:40:25.240] [INFO] user_securty - user_security master started
[2016-12-30 12:42:58.029] [INFO] user_securty - user_security master started
[2016-12-30 12:46:38.278] [INFO] user_securty - user_security master started
[2016-12-30 12:50:01.597] [INFO] user_securty - user_security master started
[2016-12-30 12:51:25.735] [INFO] user_securty - user_security master started
[2016-12-30 12:52:58.409] [INFO] user_securty - user_security master started
[2016-12-30 12:57:07.371] [INFO] user_securty - user_security master started
[2016-12-30 12:59:49.586] [INFO] user_securty - user_security master started
[2016-12-30 13:01:06.364] [INFO] user_securty - user_security master started
[2016-12-30 13:05:51.143] [INFO] user_securty - user_security master started
[2016-12-30 13:10:39.282] [INFO] user_securty - user_security master started
[2016-12-30 13:11:42.461] [INFO] user_securty - user_security master started
[2016-12-30 13:18:57.790] [INFO] user_securty - user_security master started
[2016-12-30 13:21:48.470] [INFO] user_securty - user_security master started
[2016-12-30 13:23:18.486] [INFO] user_securty - user_security master started
[2016-12-30 13:24:08.356] [INFO] user_securty - user_security master started
[2016-12-30 13:26:11.379] [INFO] user_securty - user_security master started
[2016-12-30 13:27:18.163] [INFO] user_securty - user_security master started
[2016-12-30 13:27:54.286] [INFO] user_securty - user_security master started
[2016-12-30 13:28:10.599] [INFO] user_securty - user_security master started
[2016-12-30 13:28:45.026] [INFO] user_securty - user_security master started
[2016-12-30 13:30:04.561] [INFO] user_securty - user_security master started
[2016-12-30 13:30:53.144] [INFO] user_securty - user_security master started
[2016-12-30 13:31:07.912] [INFO] user_securty - user_security master started
[2016-12-30 13:31:31.695] [INFO] user_securty - user_security master started
[2016-12-30 13:38:58.774] [INFO] user_securty - user_security master started
[2016-12-30 13:39:46.198] [INFO] user_securty - user_security master started
[2016-12-30 14:35:18.066] [INFO] user_securty - user_security master started
